{
  "director": "PlayDirector",
  "directorAttributes": [
    {
      "name": "seed",
      "value": "0"
    }
  ],
  "background": "#4d1a4d",
  "showMouse": true,
  "layout": "default",
  "snapToGrid": {
    "enabled": false,
    "xSpacing": 50,
    "ySpacing": 50,
    "xOffset": 0,
    "yOffset": 0,
    "xCloseness": 10,
    "yCloseness": 10
  },
  "snapToGuides": {
    "enabled": true,
    "closeness": 5,
    "x": [
      
    ],
    "y": [
      
    ]
  },
  "snapToOthers": {
    "enabled": true,
    "xCloseness": 10,
    "yCloseness": 10
  },
  "snapRotation": {
    "enabled": true,
    "step": 15,
    "closeness": 15
  },
  "include": [
    
  ],
  "stages": [
    {
      "name": "main",
      "actors": [
        {
          "costume": "rhombusMap",
          "x": 78.5,
          "y": 464,
          "text": "Rhombus",
          "direction": 0,
          "scaleX": 1,
          "scaleY": 1,
          "attributes": [
            {
              "name": "across",
              "value": "10"
            },
            {
              "name": "down",
              "value": "10"
            }
          ]
        }
      ]
    }
  ]
}