<?xml version="1.0" encoding="UTF-8" standalone="no"?>
<!-- Created with Inkscape (http://www.inkscape.org/) -->

<svg
   xmlns:dc="http://purl.org/dc/elements/1.1/"
   xmlns:cc="http://creativecommons.org/ns#"
   xmlns:rdf="http://www.w3.org/1999/02/22-rdf-syntax-ns#"
   xmlns:svg="http://www.w3.org/2000/svg"
   xmlns="http://www.w3.org/2000/svg"
   xmlns:xlink="http://www.w3.org/1999/xlink"
   xmlns:sodipodi="http://sodipodi.sourceforge.net/DTD/sodipodi-0.dtd"
   xmlns:inkscape="http://www.inkscape.org/namespaces/inkscape"
   width="210mm"
   height="297mm"
   viewBox="0 0 210 297"
   version="1.1"
   id="svg8"
   inkscape:version="0.92.4 (5da689c313, 2019-01-14)"
   sodipodi:docname="graphics.svg"
   inkscape:export-filename="/home/nick/projects/games/hexadom/images/graphics.png"
   inkscape:export-xdpi="96.041077"
   inkscape:export-ydpi="96.041077">
  <defs
     id="defs2" />
  <sodipodi:namedview
     id="base"
     pagecolor="#ffffff"
     bordercolor="#666666"
     borderopacity="1.0"
     inkscape:pageopacity="0.0"
     inkscape:pageshadow="2"
     inkscape:zoom="2.8284271"
     inkscape:cx="-7.0222151"
     inkscape:cy="828.70514"
     inkscape:document-units="px"
     inkscape:current-layer="layer1"
     showgrid="false"
     units="mm"
     inkscape:window-width="3840"
     inkscape:window-height="2011"
     inkscape:window-x="0"
     inkscape:window-y="0"
     inkscape:window-maximized="1">
    <inkscape:grid
       type="axonomgrid"
       id="grid820"
       units="px"
       empspacing="4"
       spacingy="4.2333333" />
  </sodipodi:namedview>
  <metadata
     id="metadata5">
    <rdf:RDF>
      <cc:Work
         rdf:about="">
        <dc:format>image/svg+xml</dc:format>
        <dc:type
           rdf:resource="http://purl.org/dc/dcmitype/StillImage" />
        <dc:title />
      </cc:Work>
    </rdf:RDF>
  </metadata>
  <g
     inkscape:label="Layer 1"
     inkscape:groupmode="layer"
     id="layer1">
    <g
       id="tile"
       inkscape:label="tile"
       transform="translate(0,0.46302084)">
      <path
         inkscape:connector-curvature="0"
         id="path863"
         d="M 18.33087,19.716662 V 2.783329 l 14.664697,8.466667 -14.664697,8.466666"
         style="fill:#ffffff;fill-opacity:1;stroke:none;stroke-width:0.26458332px;stroke-linecap:butt;stroke-linejoin:miter;stroke-opacity:1" />
      <path
         inkscape:connector-curvature="0"
         id="path861"
         d="M 3.666174,11.249995 18.330871,2.783328 V 19.716661 L 3.666174,11.249995 v 0"
         style="fill:#dedede;fill-opacity:1;stroke:none;stroke-width:0.26458332px;stroke-linecap:butt;stroke-linejoin:miter;stroke-opacity:1" />
      <path
         style="fill:#919191;fill-opacity:1;stroke:none;stroke-width:0.26458332px;stroke-linecap:butt;stroke-linejoin:miter;stroke-opacity:1"
         d="M 18.330871,36.649994 V 19.716661 l 14.664697,8.466667 -14.664697,8.466666"
         id="path865"
         inkscape:connector-curvature="0" />
      <path
         style="fill:#a3a3a3;fill-opacity:1;stroke:none;stroke-width:0.26458332px;stroke-linecap:butt;stroke-linejoin:miter;stroke-opacity:1"
         d="M 3.6661742,28.183328 V 11.249995 L 18.330871,19.716662 3.6661742,28.183328"
         id="path867"
         inkscape:connector-curvature="0" />
      <path
         style="fill:#7b7474;fill-opacity:1;stroke:none;stroke-width:0.26458332px;stroke-linecap:butt;stroke-linejoin:miter;stroke-opacity:1"
         d="M 3.6661738,28.183328 18.330871,19.716661 V 36.649994 L 3.6661738,28.183328 v 0"
         id="path869"
         inkscape:connector-curvature="0" />
      <path
         inkscape:connector-curvature="0"
         id="path871"
         d="M 18.330871,19.716661 32.995568,11.249994 V 28.183327 L 18.330871,19.716661 v 0"
         style="fill:#dedede;fill-opacity:1;stroke:none;stroke-width:0.26458332px;stroke-linecap:butt;stroke-linejoin:miter;stroke-opacity:1" />
      <path
         inkscape:connector-curvature="0"
         id="path873"
         d="M 4.8408452,11.928191 18.330874,4.1397196 31.820905,11.928191 V 27.505132 L 18.330874,35.293601 4.8408452,27.505132 Z"
         style="fill:#cfcfcf;fill-opacity:1;stroke:none;stroke-width:0.24338968px;stroke-linecap:butt;stroke-linejoin:miter;stroke-opacity:1" />
    </g>
    <g
       id="tree"
       transform="translate(-43.665152,69.13947)"
       inkscape:label="tree">
      <path
         inkscape:connector-curvature="0"
         id="path920"
         d="m 50.270833,28.588467 c 0.0083,-0.01379 0.01516,-0.02848 0.02479,-0.04134 0.007,-0.0093 0.01654,-0.01654 0.02479,-0.02479 0.01103,-0.01103 0.02204,-0.02204 0.03307,-0.03307 0.01103,-0.01103 0.02334,-0.0209 0.03307,-0.03307 0.01241,-0.01553 0.02138,-0.03354 0.03307,-0.04961 0.01037,-0.01426 0.0227,-0.02707 0.03307,-0.04134 0.01524,-0.02098 0.06472,-0.09852 0.07441,-0.115755 0.01209,-0.02148 0.02148,-0.0444 0.03307,-0.06615 0.0209,-0.03921 0.0441,-0.07717 0.06615,-0.115755 0.01103,-0.01929 0.02016,-0.0398 0.03307,-0.05788 0.01476,-0.02066 0.03551,-0.03674 0.04961,-0.05788 0.01368,-0.02051 0.02098,-0.04466 0.03307,-0.06615 0.01275,-0.02268 0.02721,-0.04432 0.04134,-0.06615 0.01619,-0.02503 0.03407,-0.04898 0.04961,-0.07441 0.164557,-0.269275 -0.06799,0.101531 0.07441,-0.14056 0.01511,-0.02569 0.03513,-0.04836 0.04961,-0.07441 0.02429,-0.04374 0.04979,-0.120386 0.06615,-0.165365 0.01103,-0.03032 0.02286,-0.06035 0.03307,-0.09095 0.04695,-0.140862 0.008,-0.02331 0.03307,-0.173633 0.0033,-0.01979 0.01087,-0.03863 0.01654,-0.05788 0.0062,-0.02098 0.03003,-0.102878 0.04134,-0.132291 0.0075,-0.01958 0.01863,-0.03782 0.02479,-0.05788 0.0049,-0.01603 0.0039,-0.03344 0.0083,-0.04961 0.0039,-0.01431 0.01331,-0.02685 0.01654,-0.04134 0.0024,-0.01077 -0.0011,-0.02209 0,-0.03307 0.0019,-0.01942 0.0068,-0.03845 0.0083,-0.05788 0.0013,-0.01648 -0.0026,-0.03327 0,-0.04961 0.003,-0.01984 0.01371,-0.03802 0.01654,-0.05788 0.0027,-0.0191 -0.0021,-0.0387 0,-0.05788 -0.003,-0.05509 0.02643,-0.103996 0.03307,-0.157096 0.0027,-0.02188 -0.0011,-0.04413 0,-0.06614 -0.0013,-0.05305 0.01304,-0.104559 0.01654,-0.157097 0.0013,-0.01925 -0.0024,-0.03873 0,-0.05788 0.0031,-0.02521 0.01318,-0.04923 0.01654,-0.07441 0.0021,-0.01639 0,-0.03307 0,-0.04961 0,-0.0441 0,-0.08819 0,-0.132292 0,-0.05237 0,-0.104731 0,-0.157096 0,-0.02205 0.0024,-0.04423 0,-0.06615 -0.0031,-0.02793 -0.0136,-0.05473 -0.01654,-0.08268 -0.0026,-0.02467 0,-0.04961 0,-0.07441 0,-0.02756 0,-0.05512 0,-0.08268 0,-0.03032 0.0013,-0.06067 0,-0.09095 -0.0013,-0.03041 -0.0055,-0.06063 -0.0083,-0.09095 -0.0028,-0.03032 -0.004,-0.06082 -0.0083,-0.09095 -0.004,-0.02782 -0.01344,-0.05475 -0.01654,-0.08268 -0.0024,-0.02191 0,-0.0441 0,-0.06615 0,-0.03032 0,-0.06063 0,-0.09095 0,-0.07166 0,-0.143316 0,-0.214974 0,-0.04961 0.0024,-0.09927 0,-0.148828 -0.0089,-0.19693 -0.0034,7.68e-4 -0.03307,-0.206705 -0.0059,-0.04102 -0.0037,-0.08284 -0.0083,-0.124024 -0.0037,-0.03332 -0.0127,-0.06591 -0.01654,-0.09922 -0.0044,-0.03843 -0.0053,-0.07719 -0.0083,-0.115755 -0.0026,-0.03309 -0.0068,-0.06606 -0.0083,-0.09922 -0.0013,-0.03029 0,-0.06063 0,-0.09095 0,-0.09629 -0.0021,-0.06022 0.0083,-0.165365 0.0024,-0.02483 0.0042,-0.0498 0.0083,-0.07441 0.0042,-0.02506 0.01357,-0.04918 0.01654,-0.07441 0.0026,-0.0219 0,-0.0441 0,-0.06615 0,-0.08334 -0.0019,-0.164698 0.0083,-0.248046 0.0051,-0.04185 0.01654,-0.08268 0.02479,-0.124024 0.0083,-0.05512 0.01913,-0.109917 0.02479,-0.165364 0.0053,-0.05217 0.0055,-0.104732 0.0083,-0.157097 0.0083,-0.05788 0.01783,-0.115584 0.02479,-0.173633 0.0013,-0.01094 0,-0.02205 0,-0.03307 0,-0.0441 0,-0.08819 0,-0.132291 0,-0.03858 0,-0.07717 0,-0.115755 0,-0.05237 0,-0.104731 0,-0.157097 0,-0.04961 0.004,-0.09938 0,-0.148828 -0.0155,-0.191277 -0.02981,-0.120698 -0.05788,-0.305924 -0.0062,-0.04097 -0.0026,-0.08298 -0.0083,-0.124024 -0.0054,-0.03909 -0.01654,-0.07717 -0.02479,-0.115755 -0.0083,-0.03859 -0.01558,-0.07738 -0.02479,-0.115755 -0.0073,-0.03056 -0.01918,-0.06003 -0.02479,-0.09095 -0.0052,-0.02838 -0.0145,-0.189048 -0.01654,-0.206705 -0.0038,-0.03331 -0.0131,-0.06587 -0.01654,-0.09922 -0.0048,-0.04669 -0.004,-0.09382 -0.0083,-0.14056 -0.004,-0.04426 -0.01262,-0.08802 -0.01654,-0.132292 -0.01725,-0.195573 -0.0027,-0.09459 -0.0083,-0.272851 -0.01077,-0.344238 0.0035,0.0282 -0.03307,-0.239779 -0.0037,-0.02731 0,-0.05512 0,-0.08268 0,-0.0441 0,-0.08819 0,-0.132292 0,-0.02481 0,-0.04961 0,-0.07441 0,-0.0055 -0.0011,-0.01113 0,-0.01654 0.0072,-0.03599 0.0516,-0.102639 0.05788,-0.115756 0.126005,-0.263467 -0.05403,0.07621 0.09922,-0.206705 0.01654,-0.03032 0.03307,-0.06063 0.04961,-0.09095 0.01103,-0.02205 0.02148,-0.04439 0.03307,-0.06615 0.01045,-0.0196 0.02312,-0.038 0.03307,-0.05788 0.0094,-0.01878 0.01423,-0.03975 0.02479,-0.05788 0.0089,-0.01524 0.02328,-0.02666 0.03307,-0.04134 0.01233,-0.01849 0.02,-0.03991 0.03307,-0.05788 0.0092,-0.01261 0.02281,-0.02134 0.03307,-0.03307 0.02561,-0.02929 0.0287,-0.04524 0.05788,-0.07441 0.09613,-0.09613 -0.0036,0.02356 0.06615,-0.06614 0.01085,-0.01393 0.02135,-0.02815 0.03307,-0.04134 0.01037,-0.01165 0.02204,-0.02205 0.03307,-0.03307 0.01378,-0.01378 0.02756,-0.02756 0.04134,-0.04134 0.01103,-0.01103 0.02373,-0.0206 0.03307,-0.03307 0.0074,-0.0099 0.0078,-0.02436 0.01654,-0.03307 0.01405,-0.01405 0.03476,-0.01987 0.04961,-0.03307 0.01029,-0.0092 0.01505,-0.02333 0.02479,-0.03307 0.01508,-0.01509 0.0737,-0.05752 0.09095,-0.06615 0.02331,-0.01165 0.128868,-0.04646 0.148828,-0.04961 0.0245,-0.0039 0.04961,0 0.07441,0 0.06615,0 0.132342,0.0025 0.198438,0 0.31614,-0.01216 -0.174292,-0.0083 0.239778,-0.0083 0.02479,0 0.04961,0 0.07441,0 0.03583,0 0.07169,-0.0016 0.107487,0 0.02492,0.0011 0.04949,0.007 0.07441,0.0083 0.02752,0.0015 0.05512,0 0.08268,0 0.02756,0 0.05512,0 0.08268,0 0.07166,0 0.143349,-0.0022 0.214974,0 0.05241,0.0016 0.104799,0.0044 0.157096,0.0083 0.06072,0.0044 0.121166,0.0123 0.181901,0.01654 0.0578,0.004 0.11588,0.0036 0.173633,0.0083 0.178774,0.0145 0.07923,0.01838 0.239779,0.02481 0.06058,0.0024 0.12133,-0.0028 0.181901,0 0.119591,0.0054 0.08806,0.0107 0.214974,0.02481 0.03572,0.004 0.07189,0.0034 0.107487,0.0083 0.289443,0.03992 -0.01061,0.0079 0.239778,0.04961 0.06265,0.01044 0.136258,0.0072 0.198438,0.01654 0.01984,0.003 0.03826,0.01233 0.05788,0.01654 0.01905,0.0041 0.03866,0.0051 0.05788,0.0083 0.01386,0.0023 0.0274,0.0065 0.04134,0.0083 0.0082,0.001 0.01654,0 0.02479,0 0.0028,0 0.0063,-0.002 0.0083,0 0.01249,0.01248 0.02135,0.02815 0.03307,0.04134 0.01037,0.01165 0.02281,0.02134 0.03307,0.03307 0.01617,0.01846 0.03905,0.05329 0.04961,0.07441 0.03919,0.07838 0.02016,0.04323 0.02479,0.14056 0.01101,0.231272 0.0083,-0.04917 0.0083,0.181901 0,0.03859 0,0.07717 0,0.115755 0,0.0441 0.0013,0.08822 0,0.132292 -0.01045,0.323697 -0.0028,-0.06825 -0.02479,0.239778 -0.0028,0.03849 0.0016,0.0772 0,0.115755 -0.0044,0.11366 -0.01196,0.09502 -0.02479,0.214974 -0.0041,0.03846 -0.0052,0.0772 -0.0083,0.115756 -0.0024,0.03034 -0.007,0.06054 -0.0083,0.09095 -0.0013,0.03304 0.0029,0.06627 0,0.09922 -0.02408,0.276957 -0.01167,-0.09391 -0.02479,0.181901 -0.0024,0.04955 0,0.09922 0,0.148828 0,0.08819 0,0.176389 0,0.264583 0,0.01929 0,0.03859 0,0.05788 0,0.01654 0.0013,0.03312 0,0.04961 -0.0016,0.01943 -0.0069,0.03844 -0.0083,0.05788 -0.0013,0.01924 0.0027,0.03878 0,0.05788 -0.0028,0.01986 -0.01259,0.0382 -0.01654,0.05788 -0.0044,0.02179 -0.0039,0.04436 -0.0083,0.06615 -0.0039,0.01967 -0.01283,0.03816 -0.01654,0.05788 -0.0046,0.02453 -0.0069,0.0495 -0.0083,0.07441 -0.0045,0.08119 0.0071,0.06363 -0.0083,0.14056 -0.0039,0.01967 -0.01193,0.03835 -0.01654,0.05788 -0.0064,0.02736 -0.01011,0.05532 -0.01654,0.08268 -0.0046,0.01953 -0.01283,0.03816 -0.01654,0.05788 -0.0046,0.02453 -0.0031,0.04999 -0.0083,0.07441 -0.02029,0.09638 -0.02117,0.06091 -0.04961,0.14056 -0.02879,0.08061 -0.0019,0.03677 -0.04134,0.115755 -0.07247,0.144942 0.01963,-0.05022 -0.04961,0.07441 -0.0072,0.01298 -0.0092,0.02846 -0.01654,0.04134 -0.02662,0.04658 -0.01127,-0.02559 -0.04134,0.04961 -0.0062,0.01556 -0.0026,0.03385 -0.0083,0.04961 -0.0055,0.0151 -0.01863,0.02651 -0.02479,0.04134 -0.0077,0.01852 -0.01056,0.03873 -0.01654,0.05788 -0.0078,0.02495 -0.01654,0.04961 -0.02479,0.07441 -0.0083,0.02481 -0.01577,0.04988 -0.02479,0.07441 -0.01027,0.02785 -0.0223,0.05502 -0.03307,0.08268 -0.0085,0.02195 -0.01606,0.04428 -0.02479,0.06615 -0.0078,0.01949 -0.01775,0.03811 -0.02479,0.05788 -0.0067,0.0189 -0.0098,0.03898 -0.01654,0.05788 -0.01781,0.04986 -0.02908,0.05132 -0.03307,0.09922 -0.0016,0.01923 0,0.03859 0,0.05788 0,0.01654 0,0.03307 0,0.04961 0,0.07166 0,0.143316 0,0.214974 0,0.03307 0,0.06615 0,0.09922 0,0.03927 -0.0027,0.07727 0.0083,0.115755 0.0058,0.02018 0.01905,0.03769 0.02479,0.05788 0.0053,0.01874 0.0033,0.03905 0.0083,0.05788 0.02711,0.101647 0.02757,0.03313 0.04961,0.148828 0.03111,0.163338 -0.01331,0.01765 0.0083,0.19017 0.0042,0.03383 0.0204,0.06541 0.02479,0.09922 0.0039,0.03006 -0.0016,0.06067 0,0.09095 0.0013,0.02493 0.0068,0.0495 0.0083,0.07441 0.0013,0.02201 -0.0016,0.04415 0,0.06615 0.0062,0.09344 0.0079,0.02297 0.02479,0.115755 0.0019,0.01084 0,0.02205 0,0.03307 0.0028,0.01929 0.0042,0.03882 0.0083,0.05788 0.01246,0.05821 0.02048,0.05128 0.02479,0.107486 0.0016,0.01924 -0.0011,0.03862 0,0.05788 0.0016,0.02765 0.0069,0.05502 0.0083,0.08268 0.0013,0.02753 -0.0026,0.05525 0,0.08268 0.0029,0.03067 0.01347,0.06029 0.01654,0.09095 0.0024,0.02468 0,0.04961 0,0.07441 0,0.03032 -0.0016,0.06067 0,0.09095 0.0013,0.02493 0.0066,0.04951 0.0083,0.07441 0.0011,0.0165 -0.0013,0.03313 0,0.04961 0.0074,0.08832 0.0087,0.01084 0.02479,0.107487 0.0024,0.01359 -0.0013,0.02762 0,0.04134 0.01005,0.110577 0.0069,-0.01892 0.02479,0.115756 0.0026,0.01912 0,0.03859 0,0.05788 0,0.02205 -0.0013,0.04413 0,0.06615 0.0016,0.02766 0.0068,0.05502 0.0083,0.08268 0.0013,0.02477 -0.0013,0.04965 0,0.07441 0.0013,0.02492 0.0068,0.0495 0.0083,0.07441 0.0013,0.02201 -0.0029,0.04429 0,0.06615 0.0026,0.01989 0.01418,0.03795 0.01654,0.05788 0.0032,0.02737 -0.0013,0.05516 0,0.08268 0.0013,0.02492 0.0058,0.04958 0.0083,0.07441 0.003,0.03029 0.004,0.06081 0.0083,0.09095 0.02545,0.178117 0.0031,-0.0042 0.04134,0.148828 0.0054,0.02155 0.0032,0.04452 0.0083,0.06615 0.006,0.02545 0.01969,0.04877 0.02479,0.07441 0.0033,0.01622 -0.0013,0.03313 0,0.04961 0.0013,0.01671 0.007,0.03289 0.0083,0.04961 0.0016,0.01923 -0.0047,0.03916 0,0.05788 0.0039,0.01558 0.0209,0.02574 0.02479,0.04134 0.0047,0.01871 -0.004,0.03901 0,0.05788 0.0044,0.02053 0.01905,0.0377 0.02479,0.05788 0.005,0.01757 0.01315,0.109577 0.01654,0.124024 0.07225,0.30707 -0.0204,-0.139481 0.04961,0.140559 0.0054,0.02156 0.0039,0.04436 0.0083,0.06615 0.0039,0.01968 0.0126,0.0382 0.01654,0.05788 0.006,0.02989 0.0079,0.08413 0.01654,0.115755 0.0039,0.01431 0.01262,0.02702 0.01654,0.04134 0.0044,0.01617 0.0066,0.03293 0.0083,0.04961 0.0035,0.03488 -0.0063,0.03222 0.0083,0.06614 0.0039,0.0091 0.01262,0.01566 0.01654,0.02479 0.0045,0.01045 0.0037,0.0227 0.0083,0.03307 0.0065,0.01468 0.01916,0.0263 0.02479,0.04134 0.0029,0.0078 -0.0033,0.0172 0,0.02479 0.0054,0.01267 0.01998,0.02016 0.02479,0.03307 0.03973,0.105955 -0.05759,-0.0553 0.01654,0.07441 0.0039,0.0068 0.01251,0.0098 0.01654,0.01654 0.0045,0.0075 0.0044,0.01701 0.0083,0.02479 0.0044,0.0089 0.01339,0.01537 0.01654,0.02479 0.02122,0.06365 -0.03117,-0.02098 0.0083,0.05788 0.0062,0.01233 0.01921,0.02048 0.02479,0.03307 0.0057,0.01283 0.0038,0.02801 0.0083,0.04134 0.01328,0.03983 0.03549,0.07622 0.04961,0.115756 0.06654,0.186322 -0.03765,-0.07382 0.04134,0.115755 0.0057,0.01371 0.01185,0.02726 0.01654,0.04134 0.0036,0.01079 0.0026,0.0232 0.0083,0.03307 0.0058,0.01016 0.01879,0.01479 0.02479,0.02479 0.0028,0.0047 -0.0013,0.01119 0,0.01654 0.0016,0.006 0.0055,0.01103 0.0083,0.01654 0.0028,0.0055 0.0039,0.01217 0.0083,0.01654 0.0034,0.0034 0.0227,0.0081 0.02479,0.01654 0.0021,0.008 -0.0031,0.01712 0,0.02479 0.0029,0.0072 0.01222,0.01005 0.01654,0.01654 0.04745,0.0028 0.0099,0.02807 0.01654,0.04134 0.03899,0.07799 0.0016,-0.0019 0.02479,0.03307 0.0034,0.0051 0.0063,0.01069 0.0083,0.01654 7.94e-4,0.0026 0.0028,0.0083 0,0.0083 -0.0028,0 -0.0028,-0.0083 0,-0.0083 0.0028,0 -0.0013,0.0058 0,0.0083 0.0019,0.0035 0.01103,0.0055 0.0083,0.0083 -0.0028,0.0028 -0.0083,-0.01217 -0.0083,-0.0083 0,0.0062 0.0055,0.01103 0.0083,0.01654"
         style="fill:#472400;fill-opacity:1;stroke:#000000;stroke-width:0.26458332px;stroke-linecap:butt;stroke-linejoin:miter;stroke-opacity:1" />
      <path
         inkscape:connector-curvature="0"
         id="path914"
         d="m 52.883593,18.889835 c -0.308025,0.256107 -0.474946,0.693445 -0.79375,0.959114 -0.07285,0.06071 -0.143819,0.129256 -0.23151,0.165365 -0.103958,0.04281 -0.223174,0.03341 -0.330729,0.06615 -1.043036,0.317445 0.240098,0.04413 -0.959115,0.23151 -0.177311,0.02771 -0.350539,0.08193 -0.529167,0.09922 -0.164594,0.01593 -0.330729,0 -0.496093,0 -0.15434,0 -0.308682,0 -0.463021,0 -0.132292,0 -0.265695,0.01711 -0.396875,0 -0.12464,-0.01626 -0.241859,-0.06873 -0.363802,-0.09922 -0.0986,-0.02465 -0.200644,-0.03583 -0.297657,-0.06615 -0.239191,-0.07475 -0.287311,-0.137998 -0.496093,-0.297656 -0.09985,-0.07635 -0.189873,-0.16684 -0.297657,-0.23151 -0.114223,-0.06854 -0.246673,-0.101921 -0.363802,-0.165365 -0.178313,-0.09659 -0.733142,-0.461608 -0.892968,-0.562239 -0.142404,-0.08966 -0.284187,-0.180491 -0.429948,-0.264584 -0.140991,-0.08134 -0.294513,-0.141221 -0.429948,-0.23151 -0.09751,-0.06501 -0.170831,-0.161197 -0.264584,-0.231511 -0.326125,-0.244594 -0.207036,-0.06515 -0.46302,-0.363802 -0.0072,-0.0084 0.0013,-0.02213 0,-0.03307 -0.0097,-0.07735 -0.0266,-0.153826 -0.03307,-0.23151 -0.0046,-0.05493 -0.0046,-0.110434 0,-0.165365 0.01712,-0.205504 0.02691,-0.2938 0.165364,-0.46302 0.0447,-0.05463 0.115451,-0.08238 0.165365,-0.132292 0.07187,-0.07187 0.121629,-0.164944 0.198437,-0.231511 0.101595,-0.08805 0.443011,-0.281831 0.56224,-0.363802 0.09085,-0.06246 0.170516,-0.140951 0.264583,-0.198437 0.323726,-0.197833 0.343051,-0.149665 0.694531,-0.297656 1.076651,-0.453327 -0.657592,0.210691 0.595313,-0.231511 0.07917,-0.02794 0.149701,-0.08034 0.23151,-0.09922 0.06445,-0.01487 0.132488,0.0051 0.198438,0 0.571823,-0.04399 -0.107709,-0.03307 0.463021,-0.03307 0.06615,0 0.132291,0 0.198437,0 0.09282,0 0.177049,-0.0107 0.264584,0.03307 5.29e-4,2.62e-4 0.260961,0.195851 0.264583,0.198438 0.05909,0.04221 0.164124,0.09674 0.198437,0.165365 0.01971,0.03944 0,0.08819 0,0.132291 0,0.0441 0.01069,0.08951 0,0.132292 -0.0027,0.01069 -0.02225,0.0022 -0.03307,0 -0.04457,-0.0089 -0.08917,-0.0187 -0.132291,-0.03307 -0.0985,-0.03283 -0.166899,-0.126646 -0.231511,-0.198438 -0.09842,-0.109356 -0.316637,-0.414625 -0.363802,-0.496093 -0.0544,-0.09397 -0.08736,-0.198812 -0.132291,-0.297657 -0.06532,-0.143696 -0.13267,-0.286457 -0.198438,-0.429947 -0.0555,-0.121094 -0.105793,-0.244659 -0.165364,-0.363803 -0.06177,-0.123551 -0.136663,-0.240251 -0.198438,-0.363802 -0.0953,-0.190596 -0.201433,-0.462984 -0.264583,-0.661458 -0.03811,-0.119779 -0.07856,-0.239816 -0.09922,-0.363802 -0.01267,-0.07612 0,-0.15434 0,-0.23151 0,-0.540896 -0.02379,-0.184938 0.06615,-0.694532 0.01355,-0.07677 0.0031,-0.159553 0.03307,-0.23151 0.02715,-0.06516 0.09439,-0.105811 0.132291,-0.165365 0.279845,-0.559686 -0.05408,0.05587 0.198438,-0.297656 0.02866,-0.04012 0.02871,-0.100206 0.06615,-0.132292 0.148076,-0.126922 0.149249,-0.03317 0.297656,-0.06615 0.05795,-0.01288 0.109043,-0.04737 0.165365,-0.06615 0.04312,-0.01437 0.08973,-0.01711 0.132291,-0.03307 0.131202,-0.0492 0.23712,-0.160433 0.363802,-0.198438 0.06423,-0.01927 0.132461,-0.02108 0.198438,-0.03307 0.05531,-0.01006 0.109381,-0.02798 0.165364,-0.03307 0.06587,-0.006 0.133985,0.01487 0.198438,0 0.414192,-0.09558 0.04667,-0.109852 0.463021,-0.165365 0.278762,-0.03717 0.279283,0.0237 0.562239,0.06615 0.12042,0.01806 0.243152,0.01662 0.363802,0.03307 0.122127,0.01665 0.242724,0.04308 0.363802,0.06615 0.259948,0.04951 0.424061,0.06655 0.661459,0.198437 0.09637,0.05354 0.174873,0.13436 0.264583,0.198438 0.127537,0.0911 0.238548,0.13553 0.330729,0.264583 0.04353,0.06094 0.03307,0.130433 0.03307,0.198437 0,0.02205 0.0053,0.04476 0,0.06615 -0.01937,0.0775 -0.158988,0.207336 -0.23151,0.231511 -0.03138,0.01046 -0.06615,0 -0.09922,0 -0.153535,0 -0.256045,-0.04221 -0.363802,-0.165365 -0.03246,-0.0371 -0.03657,-0.09285 -0.06615,-0.132292 -0.03742,-0.04989 -0.09653,-0.0812 -0.132292,-0.132291 -0.08003,-0.114332 -0.138676,-0.296512 -0.165364,-0.429948 -0.0065,-0.03243 0,-0.06615 0,-0.09922 0,-0.05512 -0.01196,-0.111556 0,-0.165365 0.01069,-0.04813 0.05198,-0.08507 0.06615,-0.132291 0.01926,-0.06423 0.0053,-0.13739 0.03307,-0.198438 0.05185,-0.114059 0.285948,-0.307574 0.363802,-0.363802 0.221869,-0.1602381 0.446111,-0.2850862 0.694531,-0.3968748 0.108278,-0.048725 0.225962,-0.076416 0.330729,-0.1322916 0.06229,-0.033219 0.108276,-0.090773 0.165365,-0.1322917 0.31769,-0.2310471 0.07709,-0.040369 0.363802,-0.2315104 0.0095,-0.00636 0.262403,-0.19762 0.264583,-0.1984375 0.04129,-0.015483 0.08819,0 0.132292,0 0.110244,0 0.220485,0 0.330729,0 0.110244,0 0.220485,0 0.330729,0 0.07717,0 0.155017,-0.0102 0.23151,0 0.715357,0.095381 -0.271504,0.058314 0.628386,0.099219 0.121142,0.00551 0.242649,-0.00527 0.363802,0 0.132625,0.00577 0.264261,0.027045 0.396875,0.033073 0.11013,0.00501 0.220485,0 0.330729,0 0.08819,0 0.178102,-0.017296 0.264583,0 0.08233,0.016465 0.155078,0.064476 0.231511,0.099219 0.04488,0.020402 0.08489,0.052601 0.132292,0.066146 0.0318,0.00909 0.06659,-0.00544 0.09922,0 0.03439,0.00573 0.0654,0.024617 0.09922,0.033073 0.01069,0.00267 0.02527,-0.00779 0.03307,0 0.0078,0.00779 -0.0049,0.023212 0,0.033073 0.007,0.013943 0.02609,0.019127 0.03307,0.033073 0.0049,0.00986 0,0.022048 0,0.033073 0,0.022048 0,0.044097 0,0.066146 0,0.044097 0.0087,0.089051 0,0.1322917 -0.0031,0.015288 -0.02204,0.022048 -0.03307,0.033073 -0.03307,0.033073 -0.06615,0.066146 -0.09922,0.099219 -0.06624,0.066239 -0.168822,0.1904695 -0.264583,0.2315104 -0.04178,0.017904 -0.09283,0.010522 -0.132292,0.033073 -0.04061,0.023204 -0.0603,0.073275 -0.09922,0.099219 -0.06153,0.04102 -0.137853,0.05681 -0.198437,0.09922 -0.05109,0.03576 -0.169709,0.0824 -0.132292,0.132292 0.0463,0.06174 0.15434,0 0.231511,0 0.941451,0 -0.199385,-0.01367 0.595312,0.03307 0.09905,0.0058 0.19893,-0.0099 0.297656,0 0.122645,0.01226 0.241912,0.04786 0.363803,0.06615 0.09872,0.01481 0.198511,0.02141 0.297656,0.03307 0.419819,0.04939 0.110858,0.0029 0.496094,0.09922 0.214603,0.05365 0.163115,0.0048 0.396875,0.132292 0.04839,0.02639 0.08555,0.07 0.132291,0.09922 0.04181,0.02613 0.09217,0.03749 0.132292,0.06615 0.29468,0.210486 -0.122619,-0.01404 0.23151,0.198438 0.06342,0.03805 0.133792,0.0633 0.198438,0.09922 0.0687,0.03817 0.226689,0.160544 0.264583,0.198438 0.06565,0.06565 0.0092,0.08185 0.03307,0.165365 0.02898,0.101436 0.117025,0.145864 0.06615,0.264583 -0.01841,0.04299 -0.06615,0.06615 -0.09922,0.09922 -0.05512,0.05512 -0.112689,0.1079 -0.165364,0.165364 -0.520491,0.567808 0.103547,-0.0978 -0.363803,0.463021 -0.0499,0.05989 -0.110244,0.110243 -0.165364,0.165365 -0.303946,0.303946 -0.04344,0.01555 -0.165365,0.198437 -0.01654,0.02481 -0.09922,0.08268 -0.09922,0.09922 0,0.02205 0.04432,-0.0031 0.06614,0 0.05565,0.008 0.109644,0.02564 0.165365,0.03307 0.109821,0.01464 0.220485,0.02205 0.330729,0.03307 0.110244,0.03307 0.217488,0.07863 0.330729,0.09922 0.130609,0.02375 0.266346,0.0089 0.396875,0.03307 0.299032,0.05538 0.70598,0.202254 0.992188,0.297657 0.32938,0.109792 0.624393,0.18784 0.926041,0.363802 0.129522,0.07555 0.246714,0.170912 0.363802,0.264583 0.152004,0.121601 0.416145,0.359632 0.529167,0.529167 0.04657,0.06986 0.06615,0.15434 0.09922,0.23151 0.03307,0.07717 0.06403,0.155279 0.09922,0.23151 0.03099,0.06715 0.07976,0.12709 0.09922,0.198438 0.0145,0.05318 0,0.110243 0,0.165365 0,0.06614 0.01297,0.133576 0,0.198437 -0.0097,0.04835 -0.04883,0.08613 -0.06614,0.132292 -0.01595,0.04256 -0.02204,0.08819 -0.03307,0.132291 -0.02204,0.0441 -0.04784,0.08652 -0.06615,0.132292 -0.0259,0.06474 -0.03276,0.137227 -0.06615,0.198438 -0.06405,0.117424 -0.293285,0.32132 -0.363802,0.396875 -0.07996,0.08567 -0.15136,0.179088 -0.231511,0.264583 -0.0853,0.09099 -0.178943,0.173906 -0.264583,0.264583 -0.101838,0.107828 -0.186804,0.232193 -0.297656,0.330729 -0.249306,0.221605 -0.346977,0.191831 -0.628386,0.363802 -0.09407,0.05749 -0.164832,0.151497 -0.264583,0.198438 -0.09196,0.04328 -0.201234,0.034 -0.297656,0.06615 -0.07016,0.02339 -0.126693,0.08128 -0.198438,0.09922 -0.06417,0.01604 -0.132291,0 -0.198437,0 -0.05512,0 -0.110244,0 -0.165365,0 -0.06615,0 -0.133358,-0.01183 -0.198437,0 -0.431358,0.07843 0.02508,0.06614 -0.264583,0.06614 -0.0249,0 -0.247076,-0.01069 -0.264584,0.03307 -0.0443,0.110751 0.171929,0.189147 0.297656,0.264584 0.08918,0.05351 0.179615,0.105387 0.264584,0.165364 0.43557,0.307462 0.188978,0.155906 0.595312,0.56224 0.08286,0.08287 0.181719,0.148644 0.264584,0.23151 0.225681,0.22568 0.218649,0.258459 0.396875,0.496094 0.05851,0.07802 0.242697,0.299684 0.297656,0.363802 0.01016,0.01184 0.02929,0.01795 0.03307,0.03307 0.008,0.03208 0,0.06615 0,0.09922 0,0.03307 0,0.06614 0,0.09922 0,0.0441 0.01971,0.09285 0,0.132292 -0.02789,0.05578 -0.08594,0.09057 -0.132292,0.132292 -0.325639,0.293074 -0.0625,0.05289 -0.463021,0.297656 -0.114824,0.07017 -0.210367,0.171329 -0.330729,0.23151 -0.124725,0.06236 -0.266306,0.08333 -0.396875,0.132292 -0.134191,0.05032 -0.258487,0.128106 -0.396875,0.165365 -0.150545,0.04053 -0.30992,0.0367 -0.463021,0.06615 -0.133908,0.02575 -0.265316,0.06334 -0.396875,0.09922 -0.11104,0.03028 -0.216905,0.08215 -0.330729,0.09922 -0.109024,0.01635 -0.220485,0 -0.330729,0 -0.08819,0 -0.17693,0.0097 -0.264583,0 -0.104336,-0.01159 -0.440426,-0.08544 -0.56224,-0.132292 -0.06902,-0.02655 -0.131292,-0.06823 -0.198437,-0.09922 -0.07623,-0.03518 -0.155279,-0.06404 -0.231511,-0.09922 -0.06715,-0.03099 -0.128791,-0.07435 -0.198437,-0.09922 -0.08561,-0.03058 -0.179462,-0.03423 -0.264584,-0.06615 -0.09233,-0.03462 -0.173405,-0.09475 -0.264583,-0.132291 -0.615569,-0.20519 -0.02892,0.006 -0.496094,-0.198438 -0.103325,-0.0452 -0.437515,-0.169148 -0.562239,-0.23151 -0.0575,-0.02875 -0.104953,-0.07725 -0.165365,-0.09922 -0.06302,-0.02292 -0.136176,-0.0082 -0.198437,-0.03307 -0.07591,-0.03036 -0.213548,-0.180476 -0.264584,-0.23151 -0.08894,-0.08894 -0.160851,-0.153546 -0.23151,-0.264584 -0.202033,-0.317482 -0.04096,-0.0725 -0.09922,-0.363802 -0.02257,-0.112862 -0.07286,-0.218691 -0.09922,-0.330729 -0.0752,-0.319586 -0.0088,-0.129864 -0.03307,-0.396875 -0.0061,-0.06678 -0.02204,-0.132292 -0.03307,-0.198437"
         style="fill:#7aaa6c;fill-opacity:1;stroke:#000000;stroke-width:0.26458332px;stroke-linecap:butt;stroke-linejoin:miter;stroke-opacity:1" />
    </g>
    <g
       id="g829"
       transform="translate(30.387728,-34.395834)">
      <use
         inkscape:label="sea"
         height="100%"
         width="100%"
         transform="translate(0,34.395833)"
         id="sea"
         xlink:href="#tile"
         y="0"
         x="0" />
      <path
         style="fill:#0e33a2;fill-opacity:1;stroke:none;stroke-width:0.24338965px;stroke-linecap:butt;stroke-linejoin:miter;stroke-opacity:1"
         d="m 4.840845,46.787045 13.490029,-7.788471 13.490031,7.788471 V 62.363986 L 18.330874,70.152455 4.840845,62.363986 Z"
         id="path873-3"
         inkscape:connector-curvature="0" />
    </g>
    <g
       id="g887"
       transform="translate(21.858831,8.5546469)">
      <path
         inkscape:connector-curvature="0"
         id="path835"
         d="m 24.765862,89.931315 c 0.0078,-0.07795 0.01367,-0.156122 0.02339,-0.233862 0.01367,-0.10939 0.0346,-0.217834 0.04677,-0.327404 0.03116,-0.280426 0.02339,-0.326646 0.02339,-0.608039 0,-0.09354 0.0032,-0.187145 0,-0.280632 -0.01947,-0.564481 -0.118111,-1.121503 -0.163702,-1.683798 -0.01136,-0.140073 -0.01462,-0.280691 -0.02339,-0.42095 -0.0068,-0.109201 -0.01918,-0.218072 -0.02339,-0.327406 -0.0036,-0.09347 0.0069,-0.187343 0,-0.280633 -0.0087,-0.117641 -0.03737,-0.233201 -0.04677,-0.350789 -0.07012,-0.876475 0.0974,0.549206 -0.02339,-0.53788 -0.01217,-0.109569 -0.03543,-0.217749 -0.04677,-0.327406 -0.02359,-0.228039 -0.02628,-0.522901 -0.04677,-0.748355 -0.01138,-0.12518 -0.03504,-0.249029 -0.04677,-0.374177 -0.01166,-0.124423 -0.0074,-0.250237 -0.02339,-0.374179 -0.01526,-0.118263 -0.05329,-0.232743 -0.07016,-0.35079 -0.07514,-0.525978 0.02046,-0.08182 -0.02339,-0.608039 -0.0072,-0.08685 -0.0381,-0.170523 -0.04677,-0.257246 -0.007,-0.06981 0,-0.140316 0,-0.210476 0,-0.249449 0,-0.498901 0,-0.748353 0,-0.07795 0.0037,-0.155995 0,-0.233862 -0.0041,-0.086 -0.01593,-0.171466 -0.02339,-0.257247 -0.0081,-0.09351 -0.01124,-0.187552 -0.02339,-0.280633 -0.0097,-0.07423 -0.07648,-0.410062 -0.09354,-0.491106 -0.01481,-0.07033 -0.03556,-0.139486 -0.04677,-0.210476 -0.054,-0.129572 -0.0058,-0.265978 -0.02339,-0.397563 -0.0085,-0.06372 -0.03417,-0.124055 -0.04677,-0.18709 -0.0031,-0.01529 0,-0.03118 0,-0.04677 0,-0.03307 0,-0.12378 0,-0.140316 0,-0.02339 0,-0.04677 0,-0.07016 0,-0.04677 -0.0077,-0.09418 0,-0.140316 0.0081,-0.04863 0.03769,-0.09186 0.04677,-0.140317 0.01444,-0.077 0.006,-0.157467 0.02339,-0.23386 0.04501,-0.198033 0.145937,-0.417687 0.257247,-0.584652 0.01559,-0.02339 0.05028,-0.0269 0.07016,-0.04677 0.03975,-0.03975 0.0538,-0.100568 0.09354,-0.140317 0.0055,-0.0055 0.01641,0.0035 0.02339,0 0.02514,-0.01257 0.05028,-0.0269 0.07016,-0.04677 0.01232,-0.01233 0.0092,-0.03664 0.02339,-0.04677 0.175729,-0.125521 0.08761,-0.04189 0.257247,-0.07016 0.30262,-0.05044 0.02269,-0.04402 0.350791,-0.11693 0.140143,-0.03114 0.325954,-0.02339 0.467722,-0.02339 0.07016,0 0.140316,0 0.210475,0 0.08575,0 0.171498,0 0.257247,0 0.08575,0 0.171586,-0.0039 0.257247,0 0.08601,0.0039 0.171231,0.01947 0.257244,0.02339 0.387824,0.01762 0.137454,-0.02747 0.561269,0.02339 0.09416,0.0113 0.186153,0.03856 0.280633,0.04677 0.08543,0.0074 0.171849,-0.0078 0.257246,0 0.0868,0.0079 0.171784,0.02968 0.257247,0.04677 0.36209,0.07242 0.305477,0.07255 0.678195,0.140316 0.139957,0.02545 0.279567,0.05445 0.42095,0.07016 0.139673,0.01553 0.280659,0.01513 0.420949,0.02339 0.124754,0.0073 0.249275,0.01937 0.374179,0.02339 0.116869,0.0038 0.234157,-0.0083 0.35079,0 0.102272,0.0073 0.202428,0.03292 0.30402,0.04677 0.137943,0.04675 0.281276,0.0079 0.420949,0.02339 0.07143,0.0079 0.139483,0.03556 0.210474,0.04677 0.140705,0.02222 0.280246,0.02455 0.420949,0.04677 0.273518,0.04319 0.54324,0.107283 0.818515,0.140317 0.0932,0.01119 0.187624,0.01072 0.280633,0.02339 0.398063,0.05428 0.06944,0.05304 0.514493,0.07016 0.109053,0.0042 0.222115,0.02872 0.327406,0 0.0752,-0.0205 0.118451,-0.103359 0.187087,-0.140316 0.135199,-0.0728 0.276746,-0.134332 0.420949,-0.18709 0.343419,-0.12564 0.695505,-0.205938 1.052375,-0.280633 0.220154,-0.04608 0.702842,-0.135509 0.935442,-0.163703 0.10862,-0.01318 0.218774,-0.01035 0.327406,-0.02339 0.08653,-0.01037 0.170625,-0.03715 0.257247,-0.04677 0.07748,-0.0086 0.155908,0 0.233862,0 0.03118,0 0.06267,0.0044 0.09354,0 0.02439,-0.0035 0.04624,-0.01741 0.07016,-0.02339 0.0076,-0.0019 0.01558,0 0.02339,0 0.03118,0 0.06236,0 0.09355,0 0.03118,0 0.06297,0.0061 0.09354,0 0.04834,-0.0097 0.09197,-0.0371 0.140317,-0.04677 0.03058,-0.0061 0.06236,0 0.09354,0 0.08575,0 0.171498,0 0.257247,0 0.03118,0 0.06236,0 0.09355,0 0.03118,0 0.06329,-0.0076 0.09354,0 0.03382,0.0085 0.06002,0.0372 0.09355,0.04677 0.02249,0.0064 0.04677,0 0.07016,0 0.03118,0 0.06236,0 0.09354,0 0.07795,0 0.155908,0 0.233862,0 0.01558,0 0.03229,0.0058 0.04677,0 0.05912,-0.02365 0.07117,-0.07016 0.140316,-0.07016 0.01744,0 0.05457,0.0078 0.04677,0.02339 -0.0078,0.01558 -0.0591,-0.03571 -0.04677,-0.02339 0.01987,0.01987 0.04857,0.02878 0.07016,0.04677 0.0254,0.02117 0.04405,0.04985 0.07016,0.07016 0.113329,0.08814 0.136548,0.07855 0.233862,0.1637 0.13842,0.121118 0.238834,0.277008 0.35079,0.42095 0.01191,0.01532 0.146354,0.180115 0.163703,0.210476 0.01222,0.0214 0.01236,0.04811 0.02339,0.07016 0.03479,0.06959 0.07304,0.0817 0.09354,0.163703 0.0076,0.03025 -0.009,0.06368 0,0.09355 0.01503,0.05008 0.0592,0.08918 0.07016,0.140316 5.29e-4,0.0027 -5.29e-4,0.366083 0,0.374176 0.01368,0.19153 0.03314,0.100428 0.07016,0.30402 0.0056,0.03068 0,0.06236 0,0.09354 0,0.03118 0,0.06236 0,0.09354 0,0.194884 0,0.389768 0,0.584652 0,0.576858 0,1.153716 0,1.730571 0,2.128134 0,4.256267 0,6.384401 0,0.280633 0,0.561266 0,0.841899 0,0.101341 0,0.202679 0,0.304019 0,0.04677 0.0084,0.0943 0,0.140317 -0.0075,0.0413 -0.03854,0.07577 -0.04677,0.11693 -0.0076,0.03822 0,0.07795 0,0.11693 0,0.07016 0,0.140316 0,0.210476 0,0.04677 0.0047,0.09378 0,0.140316 -0.0032,0.03198 -0.0164,0.06217 -0.02339,0.09354 -0.0086,0.0388 -0.01082,0.07922 -0.02339,0.11693 -0.01103,0.03307 -0.03719,0.06002 -0.04677,0.09355 -0.0064,0.02249 0,0.04677 0,0.07016 0,0.01558 0,0.03118 0,0.04677 0,0.0078 0.0077,0.02241 0,0.02339 -0.06188,0.0077 -0.124804,-0.0031 -0.187087,0 -0.09375,0.0047 -0.186883,0.01871 -0.280633,0.02339 -0.06228,0.0031 -0.124727,0 -0.187089,0 -0.07795,0 -0.155908,0 -0.23386,0 -0.07795,0 -0.155996,0.0037 -0.233863,0 -0.08601,-0.0041 -0.171251,-0.01908 -0.257246,-0.02339 -0.07007,-0.0035 -0.140316,0 -0.210473,0 -0.07796,0 -0.155909,0 -0.233863,0 -0.08575,0 -0.171498,0 -0.257246,0 -0.08575,0 -0.171567,-0.0034 -0.257247,0 -0.495281,0.01982 -0.155281,0.01161 -0.584652,0.07016 -0.170627,0.02326 -0.344194,0.02122 -0.514493,0.04677 -0.07108,0.01066 -0.139047,0.03883 -0.210476,0.04677 -0.06973,0.0078 -0.140317,0 -0.210474,0 -0.179294,0 -0.358587,0 -0.537882,0 -0.04677,0 -0.09354,0 -0.140316,0 -0.04677,0 -0.0937,-0.0039 -0.140317,0 -0.08811,2.65e-4 -0.170449,0.03888 -0.257246,0.04677 -0.04658,0.0042 -0.09354,0 -0.140316,0 -0.05457,0 -0.109136,0 -0.163703,0 -0.07795,0 -0.156335,-0.0081 -0.23386,0 -0.319852,0.03367 -0.102511,0.07933 -0.444336,0.04677 -0.08676,-0.0083 -0.170524,-0.0381 -0.257247,-0.04677 -0.06981,-0.007 -0.140388,0.0032 -0.210476,0 -0.06603,-0.003 -0.38907,-0.02635 -0.491106,-0.04677 -0.05565,-0.01114 -0.108212,-0.03488 -0.163703,-0.04677 -0.107797,-0.0231 -0.221046,-0.01775 -0.327406,-0.04677 -0.237741,-0.06484 0.06452,-0.0396 -0.210474,-0.07016 -0.05397,-0.006 -0.191886,0.009 -0.233862,0 -0.06513,-0.01397 -0.121777,-0.0571 -0.187087,-0.07016 -0.05351,-0.01069 -0.109135,0 -0.163703,0 -0.187089,0 -0.374176,0 -0.561266,0 -0.124727,0 -0.249452,0 -0.374176,0 -0.08575,0 -0.171567,0.0034 -0.257249,0 -0.109326,-0.0044 -0.218094,-0.01863 -0.327404,-0.02339 -0.02085,-7.94e-4 -0.437618,0.0011 -0.444336,0 -0.08049,-0.01206 -0.153582,-0.05678 -0.233862,-0.07016 -0.06151,-0.01024 -0.124725,0 -0.187087,0 -0.05457,0 -0.109135,0 -0.163703,0 -0.11693,0 -0.234021,-0.0061 -0.350793,0 -0.08598,0.0045 -0.171241,0.01929 -0.257246,0.02339 -0.07786,0.0037 -0.156226,-0.0071 -0.23386,0 -0.09445,0.0086 -0.186319,0.03684 -0.280633,0.04677 -0.05427,0.0057 -0.109135,0 -0.163703,0 -0.08575,0 -0.171587,-0.0039 -0.257246,0 -0.08601,0.0039 -0.171278,0.0186 -0.257247,0.02339 -0.05449,0.003 -0.109257,-0.0036 -0.163703,0 -0.06271,0.0042 -0.12438,0.01921 -0.187089,0.02339 -0.0032,2.12e-4 -0.325803,-2.14e-4 -0.327406,0 -0.06372,0.0085 -0.123841,0.03527 -0.187087,0.04677 -0.02301,0.0042 -0.04677,0 -0.07016,0 -0.07795,0 -0.155907,0 -0.233861,0 -0.03118,0 -0.06236,0 -0.09354,0 -0.01559,0 -0.03148,-0.0031 -0.04677,0 -0.01652,0.0033 -0.115741,0.0222 -0.140317,0.04677 -0.01432,0.01434 -0.01991,0.0612 -0.04677,0.07016 -0.01479,0.0049 -0.03118,0 -0.04677,0 -0.03118,0 -0.06236,0 -0.09354,0 -0.05457,0 -0.109136,0 -0.163703,0 -0.03118,0 -0.06268,0.0044 -0.09354,0 -0.08267,-0.0118 -0.09158,-0.05748 -0.163703,-0.09355 -0.007,-0.0035 -0.01559,0 -0.02339,0 -0.01559,-0.0078 -0.03283,-0.01294 -0.04677,-0.02339 -0.01764,-0.01323 -0.02843,-0.03454 -0.04677,-0.04677 -0.0065,-0.0043 -0.01574,0.0016 -0.02339,0 -0.03152,-0.0063 -0.06184,-0.0181 -0.09354,-0.02339 -0.01538,-0.0026 -0.03118,0 -0.04677,0 -0.03898,0 -0.07795,0 -0.11693,0"
         style="fill:#f5e8db;fill-opacity:1;stroke:#000000;stroke-width:0.26458332px;stroke-linecap:butt;stroke-linejoin:miter;stroke-opacity:1" />
      <path
         inkscape:connector-curvature="0"
         id="path837"
         d="m 30.401908,89.884542 c -0.0047,-0.293047 -0.173061,-0.555058 -0.210474,-0.841899 -0.01109,-0.08503 0.0036,-0.171571 0,-0.257246 -0.0042,-0.101552 -0.01831,-0.202507 -0.02339,-0.304019 -0.0027,-0.0545 0.0072,-0.109615 0,-0.163703 -0.0085,-0.06372 -0.03527,-0.123844 -0.04677,-0.187087 -0.03898,-0.214374 0.02598,0.03898 0,-0.116933 -0.0053,-0.0317 -0.0181,-0.06184 -0.02339,-0.09354 -0.0026,-0.01537 0.0019,-0.03128 0,-0.04677 -0.0061,-0.05479 -0.01791,-0.108855 -0.02339,-0.163701 -0.0024,-0.02328 0.0046,-0.04723 0,-0.07016 -0.01114,-0.05565 -0.03662,-0.107868 -0.04677,-0.163703 -0.01117,-0.06136 0.0062,-0.125034 0,-0.18709 -0.0047,-0.04718 -0.01868,-0.09313 -0.02339,-0.140316 -0.0031,-0.03102 0,-0.06236 0,-0.09354 0,-0.03118 0,-0.06236 0,-0.09354 0,-0.03898 0,-0.07795 0,-0.11693 0,-0.02339 0.0051,-0.04733 0,-0.07016 -0.01069,-0.04813 -0.03481,-0.09249 -0.04677,-0.140316 -0.0038,-0.01513 0,-0.03118 0,-0.04677 0,-0.03118 0.0031,-0.06252 0,-0.09354 -0.0047,-0.04718 -0.01865,-0.09313 -0.02339,-0.140316 -0.0054,-0.0543 0,-0.109135 0,-0.163703 0,-0.109135 0,-0.218271 0,-0.327403 0,-0.0078 0,-0.01558 0,-0.02339 0,-0.0078 -0.0055,-0.01788 0,-0.02339 0.0055,-0.0055 0.0164,0.0035 0.02339,0 0.0099,-0.0049 0.01294,-0.0199 0.02339,-0.02339 0.01479,-0.0049 0.03134,0.0021 0.04677,0 0.03935,-0.0056 0.07858,-0.01294 0.11693,-0.02339 0.31569,-0.0861 -0.06383,-0.02238 0.350792,-0.04677 0.06274,-0.0037 0.124336,-0.0199 0.187087,-0.02339 0.07784,-0.0043 0.156081,0.0052 0.233863,0 0.03966,-0.0026 0.07734,-0.01979 0.11693,-0.02339 0.04658,-0.0042 0.0943,0.0084 0.140316,0 0.0413,-0.0075 0.0762,-0.03659 0.11693,-0.04677 0.0227,-0.0057 0.04677,0 0.07016,0 0.04677,0 0.09355,0 0.140317,0 0.0083,0 0.147166,0 0.163703,0 0.03118,0 0.06255,0.0034 0.09355,0 0.0395,-0.0044 0.07758,-0.01775 0.11693,-0.02339 0.01543,-0.0021 0.03118,0 0.04677,0 0.02339,0 0.04677,0 0.07016,0 0.02339,0 0.04767,0.0064 0.07016,0 0.03352,-0.0096 0.06118,-0.03382 0.09355,-0.04677 0.0072,-0.0029 0.01558,0 0.02339,0 0.03118,0 0.06236,0 0.09354,0 0.03898,0 0.07795,0 0.11693,0 0.124727,0 0.249452,0 0.374179,0 0.09354,0 0.187087,0 0.280633,0 0.0056,0 0.0883,-0.0026 0.09354,0 0.02513,0.01257 0.04313,0.03905 0.07016,0.04677 0.02998,0.0086 0.06236,0 0.09355,0 0.08575,0 0.171497,0 0.257246,0 0.05813,0 0.132929,-0.0076 0.187089,0.02339 0.02872,0.0164 0.0437,0.05032 0.07016,0.07016 0.0062,0.0047 0.01789,-0.0055 0.02339,0 0.0055,0.0055 0.0078,0.02339 0,0.02339 -0.0078,0 -0.0078,-0.02339 0,-0.02339 0.01103,0 0.01558,0.01558 0.02339,0.02339 0.0078,0.0078 0.01847,0.01352 0.02339,0.02339 0.007,0.01394 -0.007,0.03283 0,0.04677 0.01257,0.02514 0.03905,0.04313 0.04677,0.07016 0.0086,0.02998 -0.01095,0.06435 0,0.09354 0.01368,0.03649 0.05647,0.05705 0.07016,0.09354 0.01095,0.0292 -0.01095,0.06435 0,0.09355 0.01368,0.03649 0.05647,0.05705 0.07016,0.09354 0.01095,0.0292 0,0.06236 0,0.09354 0,0.132998 -0.01045,0.0154 0.02339,0.11693 0.0024,0.0074 -0.0035,0.01641 0,0.02339 0.0055,0.01103 0.06578,0.09068 0.07016,0.116929 0.0051,0.03076 0,0.06236 0,0.09355 0,0.04677 0,0.09354 0,0.140316 0,0.148111 0,0.296222 0,0.444336 0,0.530085 0,1.060167 0,1.590252 0,0.1715 0,0.342998 0,0.514495 0,0.04677 0,0.09354 0,0.140317 0,0.01558 0,0.03118 0,0.04677 0,0.01558 0.0049,0.03198 0,0.04677 -0.0035,0.01045 -0.01847,0.01352 -0.02339,0.02339 -0.0035,0.007 0,0.01558 0,0.02339 0,0.01558 0.007,0.03283 0,0.04677 -0.0035,0.007 -0.01788,-0.0055 -0.02339,0 -7.94e-4,7.94e-4 0,0.06449 0,0.07016 0,0.0078 0,0.01558 0,0.02339 0,0.0078 -0.0035,0.0164 0,0.02339 0.0049,0.0099 0.01844,0.01352 0.02339,0.02339 0.0057,0.01132 -0.0034,0.09638 0,0.116932 0.04817,0.289 0.04677,0.167937 0.04677,0.280633 0,0.01558 0,0.03118 0,0.04677 0,0.0078 0.0078,0.02339 0,0.02339 -0.01103,0 -0.01421,-0.01728 -0.02339,-0.02339 -0.0145,-0.0097 -0.03024,-0.01789 -0.04677,-0.02339 -0.0074,-0.0024 -0.01574,0.0016 -0.02339,0 -0.218596,-0.04523 -0.434316,-0.105503 -0.654809,-0.140319 -0.077,-0.01217 -0.155908,0 -0.233863,0 -0.08575,-0.02339 -0.169717,-0.05471 -0.257246,-0.07016 -0.04606,-0.0081 -0.09354,0 -0.140316,0 -0.08575,0 -0.171498,0 -0.257247,0 -0.04677,0 -0.09401,0.0066 -0.140316,0 -0.02439,-0.0035 -0.04624,-0.01741 -0.07016,-0.02339 -0.0076,-0.0019 -0.01574,0.0016 -0.02339,0 -0.03152,-0.0063 -0.06165,-0.01939 -0.09355,-0.02339 -0.03836,-0.0048 -0.143039,0 -0.187087,0 -0.02339,0 -0.04747,0.0057 -0.07016,0 -0.04072,-0.01019 -0.07762,-0.03203 -0.11693,-0.04677 -0.04616,-0.0173 -0.09249,-0.03482 -0.140316,-0.04677 -0.0046,-0.0011 -0.07016,7.94e-4 -0.07016,0 0,-0.0078 0.03118,0 0.02339,0 -0.01558,0 -0.03118,0 -0.04677,0 -0.08134,0 -0.04471,-0.0031 -0.163703,0.02339 -0.03138,0.007 -0.06305,0.01323 -0.09355,0.02339 -0.03983,0.01328 -0.0762,0.03659 -0.11693,0.04677 -0.0227,0.0057 -0.04677,0 -0.07016,0 -0.03118,0 -0.0626,-0.0039 -0.09355,0 -0.03189,0.004 -0.06173,0.01884 -0.09354,0.02339 -0.02315,0.0033 -0.04677,0 -0.07016,0 -0.01558,0 -0.03198,0.0049 -0.04677,0 -0.01654,-0.0055 -0.03024,-0.01789 -0.04677,-0.02339 -0.0074,-0.0024 -0.01558,0 -0.02339,0 -0.19721,0 0.02275,-0.0051 -0.23386,0.02339 -0.02326,0.0026 -0.04677,0 -0.07016,0 -0.06236,0 -0.124728,0 -0.18709,0 -0.09354,0 -0.187089,0 -0.280633,0 -0.01558,0 -0.03118,0 -0.04677,0 -0.0078,0 -0.02339,0.0078 -0.02339,0 0,-0.0078 0.01558,0 0.02339,0 0.03898,0 0.07795,0 0.11693,0 0.01884,0 0.07887,0.0049 0.09355,0 0.01654,-0.0055 0.02986,-0.01916 0.04677,-0.02339 0.02088,-0.0052 0.08986,0 0.116932,0"
         style="fill:#193992;fill-opacity:1;stroke:#000000;stroke-width:0.26458332px;stroke-linecap:butt;stroke-linejoin:miter;stroke-opacity:1" />
      <path
         inkscape:connector-curvature="0"
         id="path839"
         d="m 22.544184,78.214888 c 0.11038,-0.01577 0.169952,-0.0067 0.257247,-0.07016 0.11644,-0.08468 0.226545,-0.203158 0.327405,-0.30402 0.05457,-0.05457 0.101473,-0.118065 0.163703,-0.163703 0.05623,-0.04123 0.125468,-0.06092 0.187089,-0.09354 0.07093,-0.03755 0.141017,-0.07672 0.210474,-0.11693 0.684912,-0.396529 -0.147535,0.06933 0.42095,-0.23386 0.05545,-0.02958 0.107489,-0.06544 0.163703,-0.09355 0.0531,-0.02655 0.109135,-0.04677 0.163702,-0.07016 0.05457,-0.02339 0.108902,-0.04733 0.163703,-0.07016 0.03875,-0.01614 0.08254,-0.0227 0.11693,-0.04677 0.04516,-0.03161 0.07177,-0.08532 0.11693,-0.116933 0.03439,-0.02408 0.082,-0.02349 0.116931,-0.04677 0.04521,-0.03014 0.160659,-0.170831 0.187089,-0.210476 0.01934,-0.02901 0.02829,-0.06398 0.04677,-0.09354 0.03261,-0.05217 0.132253,-0.167232 0.163702,-0.210476 0.03306,-0.04546 0.06048,-0.09485 0.09354,-0.140316 0.02936,-0.04037 0.06194,-0.0783 0.09354,-0.11693 0.09238,-0.112908 0.167616,-0.207148 0.280633,-0.30402 0.05091,-0.04364 0.107403,-0.0805 0.163703,-0.11693 0.161204,-0.104309 0.279294,-0.164412 0.444335,-0.257246 0.05478,-0.03081 0.110407,-0.06023 0.163702,-0.09354 0.363448,-0.227156 0.07182,-0.04802 0.350793,-0.257249 0.04497,-0.03373 0.09853,-0.05594 0.140316,-0.09354 0.02267,-0.0204 0.137952,-0.176138 0.163703,-0.210473 0.02339,-0.03118 0.0426,-0.06598 0.07016,-0.09355 0.02756,-0.02756 0.0636,-0.0452 0.09354,-0.07016 0.01693,-0.0141 0.02883,-0.03396 0.04677,-0.04677 0.0488,-0.03486 0.167648,-0.09035 0.210476,-0.140317 0.02267,-0.02647 0.02651,-0.06517 0.04677,-0.09354 0.01924,-0.02691 0.04677,-0.04677 0.07016,-0.07016 0.02339,-0.02339 0.04677,-0.04677 0.07016,-0.07016 0.0078,-0.0078 0.01421,-0.01728 0.02339,-0.02339 0.0145,-0.0097 0.03445,-0.01106 0.04677,-0.02339 0.01233,-0.01233 0.01106,-0.03445 0.02339,-0.04677 0.01987,-0.01987 0.05028,-0.0269 0.07016,-0.04677 0.01233,-0.01233 0.01106,-0.03445 0.02339,-0.04677 0.01233,-0.01233 0.03445,-0.01106 0.04677,-0.02339 0.01233,-0.01233 0.01106,-0.03445 0.02339,-0.04677 0.18396,-0.183957 -0.05124,0.112943 0.140317,-0.11693 0.01799,-0.02159 0.02339,-0.05457 0.04677,-0.07016 0.300802,-0.200535 -0.164759,0.228084 0.210476,-0.09355 0.02132,-0.01828 0.0269,-0.05028 0.04677,-0.07016 0.03975,-0.03975 0.09713,-0.05756 0.140317,-0.09354 0.0254,-0.02117 0.04433,-0.0495 0.07016,-0.07016 0.02722,-0.02177 0.06889,-0.02212 0.09354,-0.04677 0.01233,-0.01233 0.01106,-0.03445 0.02339,-0.04677 0.0055,-0.0055 0.01582,0.0019 0.02339,0 0.02392,-0.006 0.04811,-0.01236 0.07016,-0.02339 0.0099,-0.0049 0.01558,-0.01558 0.02339,-0.02339 0.02339,-0.01558 0.04406,-0.03633 0.07016,-0.04677 0.01447,-0.0058 0.03198,0.0049 0.04677,0 0.03592,-0.01196 0.01812,-0.05106 0.04677,-0.07016 0.01297,-0.0087 0.03198,0.0049 0.04677,0 0.02093,-0.007 0.02516,-0.04245 0.04677,-0.04677 0.03058,-0.0061 0.06236,0 0.09355,0 0.103441,0 0.15957,0.0092 0.257246,-0.02339 0.03307,-0.01103 0.0609,-0.03453 0.09354,-0.04677 0.0301,-0.0113 0.06564,-0.0074 0.09354,-0.02339 0.02872,-0.0164 0.04264,-0.05181 0.07016,-0.07016 0.0205,-0.01368 0.0475,-0.01368 0.07016,-0.02339 0.03204,-0.01373 0.06365,-0.02884 0.09354,-0.04677 0.0094,-0.0057 0.01421,-0.01728 0.02339,-0.02339 0.0145,-0.0097 0.03445,-0.01106 0.04677,-0.02339 0.01987,-0.01987 0.02922,-0.04821 0.04677,-0.07016 0.01379,-0.01722 0.03354,-0.02913 0.04677,-0.04677 0.01045,-0.01394 0.01249,-0.03316 0.02339,-0.04677 0.02066,-0.02582 0.05181,-0.04264 0.07016,-0.07016 0.01368,-0.0205 0.006,-0.05273 0.02339,-0.07016 0.01103,-0.01103 0.03575,0.01103 0.04677,0 0.04309,-0.04309 -0.0013,-0.06951 0.04677,-0.09354 0.0067,-0.0034 0.104439,0 0.11693,0 0.0078,0 0.01789,0.0055 0.02339,0 0.01233,-0.01233 0.01373,-0.03227 0.02339,-0.04677 0.01834,-0.02752 0.05181,-0.04264 0.07016,-0.07016 0.0043,-0.0065 -0.0035,-0.0164 0,-0.02339 0.02585,-0.05171 0.01452,-0.0072 0.04677,-0.02339 0.0099,-0.0049 0.01558,-0.01558 0.02339,-0.02339 0.02339,-0.02339 0.04677,-0.04677 0.07016,-0.07016 0.02339,-0.02339 0.04677,-0.04677 0.07016,-0.07016 0.0078,-0.0078 0.01352,-0.01844 0.02339,-0.02339 0.01471,-0.0074 0.07885,0.0074 0.09354,0 0.0099,-0.0049 0.01558,-0.01558 0.02339,-0.02339 0.01558,-0.01558 0.03118,-0.03118 0.04677,-0.04677 0.01558,-0.01558 0.02705,-0.03691 0.04677,-0.04677 0.01394,-0.007 0.03118,0 0.04677,0 0.0078,0 0.01789,0.0055 0.02339,0 0.01233,-0.01233 0.01106,-0.03445 0.02339,-0.04677 0.0055,-0.0055 0.01558,0 0.02339,0 0.02339,0 0.04723,0.0046 0.07016,0 0.01709,-0.0034 0.03024,-0.01789 0.04677,-0.02339 0.03049,-0.01016 0.064,-0.01072 0.09354,-0.02339 0.160478,-0.106984 -0.01691,-0.0075 0.140316,-0.04677 0.01069,-0.0027 0.01421,-0.01728 0.02339,-0.02339 0.04417,-0.02945 0.08389,-0.03749 0.140316,-0.02339 0.09566,0.02392 0.186092,0.06553 0.280633,0.09354 0.287893,0.0853 0.3884,0.0826 0.654809,0.210476 0.09763,0.04686 0.18709,0.109133 0.280633,0.1637 0.09355,0.05457 0.189267,0.105561 0.280633,0.163703 0.08028,0.05109 0.152668,0.114086 0.233863,0.163703 0.05949,0.03636 0.126989,0.05819 0.187087,0.09354 0.225255,0.132503 0.16047,0.108659 0.327406,0.233862 0.05365,0.04024 0.112511,0.07362 0.163703,0.11693 0.0505,0.04272 0.09354,0.09354 0.140316,0.140317 0.11851,0.118509 0.166346,0.16116 0.280633,0.304019 0.04189,0.05236 0.06779,0.118073 0.11693,0.163703 0.06179,0.05738 0.140991,0.09255 0.210476,0.140317 0.05526,0.03799 0.112512,0.07361 0.163701,0.11693 0.406757,0.344178 -0.135552,-0.05673 0.304019,0.257246 0.05457,0.03898 0.102936,0.08857 0.163703,0.11693 0.575276,0.268462 -0.246322,-0.221869 0.397563,0.140316 0.05845,0.03288 0.107908,0.07973 0.163703,0.11693 0.06119,0.04079 0.126624,0.07507 0.187089,0.116933 0.04104,0.02841 0.07656,0.06419 0.11693,0.09354 0.04546,0.03306 0.09486,0.06048 0.140317,0.09354 0.04037,0.02936 0.07604,0.06492 0.11693,0.09355 0.04731,0.03311 0.168928,0.09184 0.210476,0.140316 0.222297,0.259348 -0.150903,-0.08074 0.11693,0.187087 0.02756,0.02756 0.06598,0.0426 0.09354,0.07016 0.04523,0.04522 0.133144,0.195659 0.163703,0.23386 0.133231,0.166539 0.06432,0.02397 0.23386,0.210476 0.03781,0.04159 0.06409,0.09244 0.09355,0.140316 0.03294,0.05353 0.05127,0.117198 0.09354,0.163701 0.03781,0.04159 0.09642,0.05843 0.140316,0.09355 0.259519,0.207613 -0.0379,-0.01659 0.140317,0.187087 0.03287,0.03757 0.07753,0.0629 0.11693,0.09355 0.07016,0.05457 0.140316,0.109135 0.210476,0.163703 0.03077,0.02392 0.06395,0.04479 0.09354,0.07016 0.02511,0.02151 0.04325,0.05094 0.07016,0.07016 0.02837,0.02027 0.06707,0.02408 0.09354,0.04677 0.02959,0.02537 0.04623,0.06278 0.07016,0.09355 0.03064,0.0394 0.05598,0.08406 0.09354,0.11693 0.02625,0.02297 0.06517,0.02651 0.09354,0.04677 0.05383,0.03844 0.08528,0.103624 0.140317,0.140316 0.0205,0.01368 0.04902,0.01069 0.07016,0.02339 0.01892,0.01135 0.02786,0.03543 0.04677,0.04677 0.02114,0.01267 0.04965,0.0097 0.07016,0.02339 0.05387,0.03592 0.07337,0.0978 0.140317,0.116929 0.02998,0.0086 0.06396,-0.0099 0.09354,0 0.02093,0.007 0.02913,0.03354 0.04677,0.04677 0.01394,0.01045 0.03118,0.01558 0.04677,0.02339 0.02339,0.01558 0.04767,0.02991 0.07016,0.04677 0.01765,0.01323 0.02705,0.03691 0.04677,0.04677 0.007,0.0035 0.01558,0 0.02339,0 0.02339,0.01558 0.04767,0.02991 0.07016,0.04677 0.0088,0.0066 0.01421,0.01728 0.02339,0.02339 0.0145,0.0097 0.03445,0.01106 0.04677,0.02339 0.01233,0.01233 0.0094,0.03631 0.02339,0.04677 0.05203,0.03902 0.109598,0.01071 0.163703,0.04677 0.02752,0.01834 0.04677,0.04677 0.07016,0.07016 0.0078,0.0078 0.01844,0.01352 0.02339,0.02339 0.01103,0.02204 0.0086,0.05044 0.02339,0.07016 0.01045,0.01394 0.03445,0.01106 0.04677,0.02339 0.02466,0.02466 0.02212,0.06889 0.04677,0.09355 0.0055,0.0055 0.01789,-0.0055 0.02339,0 0.0055,0.0055 0,0.01558 0,0.02339 0,0.0078 0.007,0.0199 0,0.02339 -0.01394,0.007 -0.03118,0 -0.04677,0 -0.07016,0 -0.140316,0 -0.210476,0 -0.101338,0 -0.202758,-0.004 -0.304017,0 -0.275153,0.01101 -0.293904,0.02156 -0.561266,0.09355 -0.811315,0.21843 0.134967,-0.02024 -0.631425,0.163701 -0.29097,0.06983 -0.238041,0.07627 -0.514493,0.09355 -0.04668,0.0029 -0.09355,0 -0.140317,0 -0.109135,0 -0.21827,0 -0.327406,0 -0.280633,0 -0.561266,0 -0.841898,0 -0.08575,0 -0.171567,-0.0034 -0.257247,0 -0.752149,0.03008 0.04933,0.0034 -0.584652,0.07016 -0.06202,0.0065 -0.124728,0 -0.18709,0 -0.07795,0 -0.155906,0 -0.23386,0 -0.265043,0 -0.530085,0 -0.795128,0 -0.171498,0 -0.342995,0 -0.514493,0 -0.05457,0 -0.109135,0 -0.163703,0 -0.03118,0 -0.06329,0.0076 -0.09354,0 -0.06462,-0.01614 -0.124282,-0.04799 -0.187089,-0.07016 -0.06974,-0.02461 -0.140737,-0.04555 -0.210473,-0.07016 -0.06281,-0.02217 -0.122476,-0.054 -0.18709,-0.07016 -0.0011,-2.64e-4 -0.371337,-0.04627 -0.374176,-0.04677 -0.228106,-0.04025 -0.177393,-0.05548 -0.397566,-0.07016 -0.05445,-0.0036 -0.109133,0 -0.1637,0 -0.06236,0 -0.124727,0 -0.18709,0 -0.11693,0 -0.23386,0 -0.350792,0 -0.05457,0 -0.109255,-0.0036 -0.163701,0 -0.06271,0.0042 -0.124401,0.01892 -0.187089,0.02339 -0.08553,0.0061 -0.171498,0 -0.257247,0 -0.132521,0 -0.265043,0 -0.397563,0 -0.05457,0 -0.109558,-0.0068 -0.163703,0 -0.07132,0.0089 -0.139485,0.03557 -0.210476,0.04677 -0.104335,0.01648 -0.392355,0.03331 -0.491106,0.04677 -0.08636,0.01177 -0.171786,0.02968 -0.257249,0.04677 -0.240178,0.04804 -0.315293,0.08118 -0.537879,0.09355 -0.07005,0.0039 -0.140317,0 -0.210474,0 -0.187089,0 -0.374179,0 -0.561266,0 -0.132522,0 -0.265043,0 -0.397563,0 -0.05457,0 -0.109257,-0.0036 -0.163703,0 -0.06271,0.0042 -0.124338,0.0199 -0.187089,0.02339 -0.07783,0.0043 -0.155908,0 -0.23386,0 -0.109135,0 -0.218271,0 -0.327406,0 -0.389768,0 -0.779536,0 -1.169304,0 -0.07016,0 -0.140317,0 -0.210475,0 -0.05457,0 -0.109556,0.0068 -0.163703,0 -0.01094,-0.0013 -0.01245,-0.02201 -0.02339,-0.02339 -0.05415,-0.0068 -0.109135,0 -0.163703,0 -0.03898,0 -0.07795,0 -0.11693,0 -0.03118,0 -0.06247,-0.0026 -0.09354,0 -0.06263,0.0052 -0.12438,0.01921 -0.187089,0.02339 -0.05445,0.0036 -0.109135,0 -0.163703,0 -0.04677,0 -0.09458,-0.0098 -0.140316,0 -0.06512,0.01394 -0.123048,0.05186 -0.187089,0.07016 -0.04559,0.01302 -0.09457,0.0109 -0.140316,0.02339 -0.0405,0.01106 -0.07595,0.03767 -0.116931,0.04677 -0.157107,0.03491 -0.03091,-0.04355 -0.187089,0.02339 -0.02583,0.01106 -0.04502,0.0342 -0.07016,0.04677 -0.02205,0.01103 -0.04677,0.01558 -0.07016,0.02339 -0.02339,0.0078 -0.04599,0.01855 -0.07016,0.02339 -0.01529,0.003 -0.03118,0 -0.04677,0 -0.03118,0 -0.06236,0 -0.09355,0 -0.04226,0 -0.126954,0.0052 -0.163702,0 -0.03182,-0.0046 -0.06203,-0.01709 -0.09355,-0.02339 -0.036,-0.0072 -0.02719,0.01958 -0.07016,-0.02339 -0.01232,-0.01233 -0.01559,-0.03118 -0.02339,-0.04677 -0.02579,-0.05158 -0.05532,-0.101526 -0.116931,-0.11693 -0.02622,-0.0066 -0.06762,0.0074 -0.09354,0 -0.07855,0.01664 -0.123903,-0.0491 -0.187089,-0.07016 -0.0074,-0.0024 -0.01559,0 -0.02339,0 -0.04239,0 -0.07016,0.01148 -0.07016,-0.04677"
         style="fill:#923419;fill-opacity:1;stroke:#000000;stroke-width:0.26458332px;stroke-linecap:butt;stroke-linejoin:miter;stroke-opacity:1" />
    </g>
    <g
       transform="translate(60.550229,-34.395834)"
       id="g853">
      <use
         x="0"
         y="0"
         xlink:href="#tile"
         id="use849"
         transform="translate(0,34.395833)"
         width="100%"
         height="100%"
         inkscape:label="sea" />
      <path
         inkscape:connector-curvature="0"
         id="path851"
         d="m 4.840845,46.787045 13.490029,-7.788471 13.490031,7.788471 V 62.363986 L 18.330874,70.152455 4.840845,62.363986 Z"
         style="fill:#b6382f;fill-opacity:1;stroke:none;stroke-width:0.24338965px;stroke-linecap:butt;stroke-linejoin:miter;stroke-opacity:1" />
    </g>
    <g
       transform="translate(0,35.388021)"
       inkscape:label="tile"
       id="g870">
      <path
         style="fill:#ffffff;fill-opacity:1;stroke:none;stroke-width:0.26458332px;stroke-linecap:butt;stroke-linejoin:miter;stroke-opacity:1"
         d="M 18.33087,19.716662 V 2.783329 l 14.664697,8.466667 -14.664697,8.466666"
         id="path855"
         inkscape:connector-curvature="0" />
      <path
         style="fill:#dedede;fill-opacity:1;stroke:none;stroke-width:0.26458332px;stroke-linecap:butt;stroke-linejoin:miter;stroke-opacity:1"
         d="M 3.666174,11.249995 18.330871,2.783328 V 19.716661 L 3.666174,11.249995 v 0"
         id="path857"
         inkscape:connector-curvature="0" />
      <path
         inkscape:connector-curvature="0"
         id="path859"
         d="M 18.330871,36.649994 V 19.716661 l 14.664697,8.466667 -14.664697,8.466666"
         style="fill:#919191;fill-opacity:1;stroke:none;stroke-width:0.26458332px;stroke-linecap:butt;stroke-linejoin:miter;stroke-opacity:1" />
      <path
         inkscape:connector-curvature="0"
         id="path862"
         d="M 3.6661742,28.183328 V 11.249995 L 18.330871,19.716662 3.6661742,28.183328"
         style="fill:#a3a3a3;fill-opacity:1;stroke:none;stroke-width:0.26458332px;stroke-linecap:butt;stroke-linejoin:miter;stroke-opacity:1" />
      <path
         inkscape:connector-curvature="0"
         id="path864"
         d="M 3.6661738,28.183328 18.330871,19.716661 V 36.649994 L 3.6661738,28.183328 v 0"
         style="fill:#7b7474;fill-opacity:1;stroke:none;stroke-width:0.26458332px;stroke-linecap:butt;stroke-linejoin:miter;stroke-opacity:1" />
      <path
         style="fill:#dedede;fill-opacity:1;stroke:none;stroke-width:0.26458332px;stroke-linecap:butt;stroke-linejoin:miter;stroke-opacity:1"
         d="M 18.330871,19.716661 32.995568,11.249994 V 28.183327 L 18.330871,19.716661 v 0"
         id="path866"
         inkscape:connector-curvature="0" />
      <path
         style="fill:#cfcfcf;fill-opacity:1;stroke:none;stroke-width:0.24338968px;stroke-linecap:butt;stroke-linejoin:miter;stroke-opacity:1"
         d="M 4.8408452,11.928191 18.330874,4.1397196 31.820905,11.928191 V 27.505132 L 18.330874,35.293601 4.8408452,27.505132 Z"
         id="path868"
         inkscape:connector-curvature="0" />
    </g>
    <g
       transform="translate(30.387728,0.52916667)"
       id="g876">
      <use
         x="0"
         y="0"
         xlink:href="#tile"
         id="use872"
         transform="translate(0,34.395833)"
         width="100%"
         height="100%"
         inkscape:label="sea" />
      <path
         inkscape:connector-curvature="0"
         id="path874"
         d="m 4.840845,46.787045 13.490029,-7.788471 13.490031,7.788471 V 62.363986 L 18.330874,70.152455 4.840845,62.363986 Z"
         style="fill:#0e33a2;fill-opacity:1;stroke:none;stroke-width:0.24338965px;stroke-linecap:butt;stroke-linejoin:miter;stroke-opacity:1" />
    </g>
    <g
       id="g882"
       transform="translate(60.550229,0.52916667)">
      <use
         inkscape:label="sea"
         height="100%"
         width="100%"
         transform="translate(0,34.395833)"
         id="use878"
         xlink:href="#tile"
         y="0"
         x="0" />
      <path
         style="fill:#b6382f;fill-opacity:1;stroke:none;stroke-width:0.24338965px;stroke-linecap:butt;stroke-linejoin:miter;stroke-opacity:1"
         d="m 4.840845,46.787045 13.490029,-7.788471 13.490031,7.788471 V 62.363986 L 18.330874,70.152455 4.840845,62.363986 Z"
         id="path880"
         inkscape:connector-curvature="0" />
    </g>
    <use
       x="0"
       y="0"
       xlink:href="#g887"
       id="use889"
       transform="translate(-35.286433,-35.079126)"
       width="100%"
       height="100%" />
    <use
       height="100%"
       width="100%"
       transform="translate(-5.1239319,-35.079126)"
       id="use891"
       xlink:href="#g887"
       y="0"
       x="0" />
    <use
       x="0"
       y="0"
       xlink:href="#g887"
       id="use893"
       transform="translate(25.038572,-35.079126)"
       width="100%"
       height="100%" />
    <g
       id="g877"
       transform="translate(2.1047475,0.280633)">
      <path
         inkscape:connector-curvature="0"
         id="path852"
         d="m 29.501041,83.878125 c -0.154339,0.352777 -0.350906,0.689954 -0.463021,1.058334 -0.04494,0.14765 0.02761,0.311168 0,0.46302 -0.01765,0.09701 -0.1109,0.168326 -0.132291,0.264584 -0.04005,0.180234 0.02871,0.52665 0,0.727604 -0.08219,0.575318 -0.06615,-0.0057 -0.06615,0.463021 0,0.73987 0.06236,-0.08976 -0.132292,0.396875 -0.02455,0.06141 0.0094,0.132955 0,0.198437 -0.01286,0.08999 -0.0571,0.174125 -0.06615,0.264584 -0.02193,0.219389 0.02193,0.442065 0,0.661458 -0.08065,0.806447 -0.06615,0.05063 -0.06615,0.661458 0,0.08819 0,0.176387 0,0.264584 0,0.08819 0.03276,0.182694 0,0.264583 -0.01831,0.04578 -0.110244,0.02204 -0.132292,0.06615 -0.03944,0.07888 0,0.176387 0,0.264583 0,0.01572 -0.0074,0.249756 0,0.264583 0.01394,0.02789 0.05628,0.03656 0.06615,0.06615 0.01394,0.04183 -0.01971,0.09285 0,0.132292 0.131783,0.263567 0.132363,2.64e-4 0.198437,0.264583 0.03253,0.130112 0.0528,0.263422 0.06615,0.396875 0.0088,0.08776 -0.02138,0.17902 0,0.264583 0.190561,0.762241 0.09214,-0.214931 0.198438,0.529167 0.0094,0.06548 0,0.132292 0,0.198438 0,0.06615 0,0.132291 0,0.198437 0,0.0441 -0.01069,0.08951 0,0.132292 0.01196,0.04783 0.05419,0.08446 0.06614,0.132291 0.0093,0.03726 -0.01021,0.249262 0,0.264584 0.02735,0.04102 0.104945,0.02511 0.132292,0.06615 0.02445,0.03669 -0.01069,0.08951 0,0.132291 0.01196,0.04783 0.05055,0.08552 0.06615,0.132292 0.01394,0.04183 0,0.08819 0,0.132292 0,0.06614 0,0.132291 0,0.198437 0,0.056 0.01185,0.229021 0,0.264583 -0.03118,0.09354 -0.09767,0.172257 -0.132292,0.264584 -0.03192,0.08512 -0.0512,0.174911 -0.06615,0.264583 -0.0454,0.272431 0.12441,0.01839 -0.06614,0.463021 -0.02455,0.05732 -0.10913,0.07439 -0.132292,0.132292 -0.02455,0.06141 0,0.132291 0,0.198437 0,0.132292 0,0.264583 0,0.396875 0,0.352777 0,0.705554 0,1.058333 0,0.242533 0,0.485069 0,0.727605 0,0.06614 -0.06322,0.178982 0,0.198437 0.557953,0.171678 1.145783,0.22443 1.719792,0.330729 0.02167,0.004 0.05628,0.01971 0.06615,0 0.0034,-0.0068 0,-0.390371 0,-0.396875 0,-0.06615 0,-0.132291 0,-0.198437 0,-0.06615 0.0094,-0.132959 0,-0.198438 -0.01286,-0.09 -0.04272,-0.176744 -0.06615,-0.264583 -0.06478,-0.242906 -0.137467,-0.483719 -0.198438,-0.727604 -0.01069,-0.04278 0,-0.0882 0,-0.132292 0,-0.0882 0,-0.17639 0,-0.264583 0,-0.110244 0,-0.220488 0,-0.330729 0,-0.132292 -0.01098,-0.265041 0,-0.396875 0.04809,-0.577115 0.03136,-0.215916 0.198438,-0.661459 0.141054,-0.137117 0.02331,-0.313113 0.06615,-0.463021 0.198568,-0.694989 0.08476,0.152924 0.198438,-0.529166 0.0038,-0.02289 0.0049,-0.377367 0,-0.396875 -0.01196,-0.04783 -0.05648,-0.08395 -0.06615,-0.132292 -0.01296,-0.06486 0,-0.132292 0,-0.198437 -0.0441,-0.154342 -0.09006,-0.308163 -0.132292,-0.463021 -0.02392,-0.08771 -0.0512,-0.174914 -0.06615,-0.264584 -0.03918,-0.235063 0.108529,-0.11367 -0.06615,-0.46302 -0.02204,-0.0441 -0.09743,-0.03129 -0.132292,-0.06615 -0.0021,-0.0021 0,-0.182396 0,-0.198438 0,-0.274055 0.0087,-0.01426 -0.06615,-0.46302 -0.0036,-0.02175 0,-0.0441 0,-0.06615 0,-0.132292 0,-0.264584 0,-0.396875 0,-0.330729 0,-0.661459 0,-0.992188 0,-1.058333 0,-2.116666 0,-3.175 0,-0.352779 0,-0.705556 0,-1.058333 0,-0.02611 0.01376,-0.592685 0,-0.661458 -0.0097,-0.04835 -0.0441,-0.0882 -0.06615,-0.132292 -0.02204,-0.0441 -0.02513,-0.104944 -0.06614,-0.132292 -0.03669,-0.02447 -0.08819,0 -0.132292,0 -0.02204,0 -0.0441,0 -0.06615,0 -0.154339,0 -0.308681,0 -0.463021,0 z"
         style="fill:#432e16;fill-opacity:1;stroke:none;stroke-width:0.26458332px;stroke-linecap:butt;stroke-linejoin:miter;stroke-opacity:1" />
      <path
         inkscape:connector-curvature="0"
         id="path854"
         d="m 29.501041,83.878123 c -0.352779,-0.110242 -0.695383,-0.26093 -1.058333,-0.330727 -0.216519,-0.04164 -0.441201,-0.01 -0.661458,0 -0.662887,0.03013 -0.834004,0.06039 -1.455209,0.198438 -0.177487,0.03944 -0.355389,0.07882 -0.529166,0.132291 -0.113485,0.03492 -0.216563,0.09967 -0.330729,0.132292 -0.100136,0.02861 -0.231985,-0.03292 -0.33073,0 -0.02958,0.0099 -0.0441,0.04409 -0.06614,0.06615 -0.06615,0.06615 -0.132292,0.132291 -0.198438,0.198437 -0.08819,0.08819 -0.176389,0.176387 -0.264583,0.264584 -0.525337,0.525335 0.01744,0.02535 -0.595313,0.46302 -0.205822,0.147016 -0.136032,0.235874 -0.330729,0.463021 -0.05174,0.06036 -0.142224,0.07608 -0.198437,0.132292 -0.03486,0.03486 -0.03656,0.09285 -0.06615,0.132292 -0.26076,0.347678 -0.0056,-0.122508 -0.264584,0.330729 -0.09784,0.171225 -0.16881,0.356774 -0.264583,0.529166 -0.155689,0.280239 -0.281154,0.454803 -0.463021,0.727605 -0.08819,0.132291 -0.163901,0.273817 -0.264583,0.396875 -0.09873,0.120663 -0.220486,0.220485 -0.330729,0.330729 -0.110243,0.110241 -0.207664,0.235011 -0.330729,0.330729 -0.783567,0.609438 0.218116,-0.350409 -0.463021,0.330729 -0.02205,0.02204 -0.05629,0.03656 -0.06615,0.06615 -0.01395,0.04183 0.01972,0.09285 0,0.132292 -0.0099,0.01971 -0.04851,-0.01323 -0.06615,0 -0.07484,0.05613 -0.125392,0.139999 -0.198437,0.198437 -0.0385,0.0308 -0.09379,0.03535 -0.132292,0.06615 -0.07305,0.05844 -0.126575,0.138552 -0.198438,0.198437 -0.06107,0.05089 -0.134839,0.08459 -0.198437,0.132292 -0.02495,0.01871 -0.0402,0.04885 -0.06615,0.06615 -0.04102,0.02735 -0.09743,0.03128 -0.132292,0.06615 -0.01559,0.01558 0.05056,0.01558 0.06615,0 0.01559,-0.01558 -0.01134,-0.04724 0,-0.06615 0.05672,-0.09453 0.138357,-0.172151 0.198438,-0.264583 0.513333,-0.789747 1.003308,-1.594591 1.521354,-2.38125 0.07765,-0.117912 0.188787,-0.211622 0.264583,-0.33073 0.07941,-0.124785 0.132292,-0.264583 0.198438,-0.396875 0.0441,-0.0882 0.09345,-0.173953 0.132291,-0.264583 0.02747,-0.06409 0.03496,-0.136075 0.06615,-0.198437 -0.01127,-0.1353 0.100729,-0.02827 0.132292,-0.06615 0.101786,-0.122145 0.18447,-0.259541 0.264583,-0.396875 0.245897,-0.159832 0.158383,-0.449059 0.264584,-0.661459 0.0493,-0.0986 0.141718,-0.170053 0.198437,-0.264583 0.01134,-0.01892 0,-0.0441 0,-0.06615 0.06615,-0.132291 0.116394,-0.273809 0.198438,-0.396875 0.01223,-0.01833 0.05056,0.01558 0.06615,0 0.03486,-0.03486 0.02205,-0.110244 0.06615,-0.132291 0.05916,-0.02958 0.141718,0.03403 0.198438,0 0.06817,-0.0409 0.07608,-0.142227 0.132291,-0.198438 0.05621,-0.05621 0.137366,-0.0814 0.198438,-0.132292 0.07186,-0.05988 0.117218,-0.152027 0.198437,-0.198437 0.122739,-0.178017 0.323574,0.0036 0.463021,-0.06615 0.162077,-0.08104 -0.02057,-0.147484 0.132292,-0.198437 2.91e-4,-1.01e-4 0.198374,6e-5 0.198437,0 0.03486,-0.03486 0.03128,-0.09743 0.06615,-0.132292 0.01559,-0.01558 0.0441,0 0.06615,0 0.02979,0 0.178307,-0.01005 0.198438,0 0.04453,0.02225 0.248225,0.181935 0.330729,0.198437 0.06486,0.01296 0.132291,0 0.198437,0 0.0882,0.0441 0.168923,0.108376 0.264584,0.132292 0.08556,0.02138 0.176388,0 0.264583,0 0.110244,0 0.22116,-0.01217 0.330729,0 0.09035,0.01003 0.174376,0.05487 0.264583,0.06615 0.153149,0.01913 0.308682,0 0.463021,0 0.08819,0 0.178102,-0.0173 0.264583,0 0.03058,0.0061 0.03826,0.0522 0.06615,0.06615 0.01971,0.0099 0.0441,0 0.06615,0 0.0441,0.04409 0.0804,0.0977 0.132292,0.132291 0.01833,0.01222 0.04642,-0.0099 0.06615,0 0.02789,0.01394 0.03719,0.05456 0.06614,0.06615 0.08441,0.03376 0.17639,0.0441 0.264584,0.06615 0.08819,0.02204 0.174588,0.05329 0.264583,0.06615 0.06548,0.0093 0.132292,0 0.198438,0 0.176389,0.08819 0.337007,0.220236 0.529166,0.264581 0.109546,0.02529 0.219432,-0.05025 0.330729,-0.06614 0.04365,-0.0062 0.08819,0 0.132292,0 0.02204,0 0.06615,-0.02204 0.06615,0 0,0.02204 -0.04427,-0.0027 -0.06615,0 -0.154704,0.01934 -0.308681,0.0441 -0.463021,0.06614"
         style="fill:#3f8a17;fill-opacity:1;stroke:none;stroke-width:0.26458332px;stroke-linecap:butt;stroke-linejoin:miter;stroke-opacity:1" />
      <path
         inkscape:connector-curvature="0"
         id="path856"
         d="m 39.224479,89.302084 c -0.598353,-0.897531 -0.304313,-0.5689 -0.79375,-1.058334 -0.08819,-0.0882 -0.182452,-0.17072 -0.264584,-0.264583 -0.782896,-0.894742 0.17961,0.203269 -0.264583,-0.463021 -0.06919,-0.10378 -0.17639,-0.17639 -0.264583,-0.264583 -0.02492,-0.02495 -0.217139,-0.236117 -0.264584,-0.264584 -0.08455,-0.05073 -0.180967,-0.08003 -0.264583,-0.132291 -0.09349,-0.05843 -0.171098,-0.14001 -0.264583,-0.198438 -0.08763,-0.05477 -0.340265,-0.17798 -0.463021,-0.198437 -0.310383,-0.05173 -0.105355,0.08714 -0.463021,-0.06615 -0.07307,-0.03132 -0.13027,-0.09139 -0.198437,-0.132292 -0.288984,-0.173392 0.04788,0.05701 -0.33073,-0.132291 -0.0711,-0.03556 -0.127333,-0.09674 -0.198437,-0.132292 -0.03944,-0.01971 -0.09448,0.02267 -0.132292,0 -0.09453,-0.05672 -0.163253,-0.155012 -0.264583,-0.198438 -0.0608,-0.02606 -0.134837,0.01818 -0.198438,0 -0.470725,-0.134495 -0.101015,-0.07714 -0.396875,-0.330729 -0.02215,-0.01897 -0.350292,-0.219493 -0.46302,-0.264583 -0.06474,-0.0259 -0.130797,-0.04924 -0.198438,-0.06615 -0.02138,-0.0053 -0.04642,0.0099 -0.06615,0 -0.0711,-0.03556 -0.13027,-0.09139 -0.198437,-0.132292 -0.08925,-0.05355 -0.142288,-0.04807 -0.198438,-0.132291 -0.02735,-0.04102 -0.0267,-0.102712 -0.06615,-0.132292 -0.292716,-0.219541 -0.09554,0.02204 -0.330729,-0.06615 -0.138488,-0.05194 -0.257873,-0.147891 -0.396875,-0.198437 -0.105658,-0.03842 -0.227991,-0.02048 -0.330729,-0.06615 -0.678915,-0.301741 0.134057,-0.109657 -0.529167,-0.330729 -0.0525,-0.01752 -0.283657,0.01884 -0.330729,0 -0.215135,-0.08606 -0.2501,-0.155856 -0.463021,-0.198438 -0.02561,-0.0051 -0.253703,0.0054 -0.264583,0 -0.05578,-0.02789 -0.07651,-0.104404 -0.132292,-0.132291 -0.03944,-0.01971 -0.10111,0.03118 -0.132291,0 -0.02204,-0.02204 0.03656,-0.05629 0.06615,-0.06615 0.06275,-0.02093 0.132291,0 0.198437,0 0.02204,0 0.06119,0.02148 0.06615,0 0.06521,-0.282578 0.110048,-0.570746 0.132292,-0.859896 0.0016,-0.02199 -0.0441,0 -0.06615,0 -0.08819,0 -0.17639,0 -0.264584,0 -0.02204,0 -0.04523,0.007 -0.06614,0 -0.04677,-0.01558 -0.17639,-0.0441 -0.132292,-0.06615 0.07888,-0.03944 0.17639,0 0.264583,0 0.972524,0 0.02244,-0.03027 0.79375,0.06615 0.78214,0.09777 -0.462579,-0.154194 0.396875,0.132292 0.06424,0.0214 0.242695,0 0.330729,0 0.02204,0 0.04523,-0.007 0.06615,0 0.191934,0.06398 0.07735,0.04147 0.198438,0.132291 0.0636,0.0477 0.127333,0.09674 0.198437,0.132292 0.06236,0.03118 0.136075,0.03496 0.198438,0.06615 0.02789,0.01394 0.03657,0.05629 0.06615,0.06615 0.04183,0.01394 0.09285,-0.01971 0.132291,0 0.05578,0.02789 0.0824,0.09487 0.132292,0.132291 0.03944,0.02958 0.09743,0.03128 0.132292,0.06615 0.03118,0.03118 -0.03118,0.101108 0,0.132292 0.01558,0.01558 0.05055,-0.01558 0.06615,0 0.05621,0.05621 0.06869,0.150738 0.132292,0.198437 0.03528,0.02646 0.08951,-0.01069 0.132292,0 0.204758,0.05119 0.07632,0.08548 0.264583,0.198438 0.05979,0.03587 0.133699,0.04025 0.198438,0.06615 0.04577,0.01831 0.08552,0.05055 0.132291,0.06615 0.02093,0.007 0.0478,-0.01222 0.06615,0 0.05189,0.03459 0.07882,0.100206 0.132292,0.132292 0.05979,0.03587 0.130797,0.04923 0.198437,0.06615 0.02138,0.0053 0.04851,-0.01323 0.06615,0 0.07484,0.05613 0.118224,0.150307 0.198438,0.198437 0.03781,0.02268 0.09046,-0.01394 0.132291,0 0.09354,0.03118 0.169773,0.105201 0.264584,0.132292 0.0636,0.01818 0.139274,-0.02958 0.198437,0 0.08367,0.04183 0.118224,0.150307 0.198438,0.198438 0.01238,0.0074 0.286527,0 0.330729,0 0.02204,0 0.05055,-0.01558 0.06615,0 0.01558,0.01558 -0.01558,0.05055 0,0.06615 0.01558,0.01558 0.04642,-0.0099 0.06614,0 0.02789,0.01394 0.0412,0.04743 0.06615,0.06615 0.0636,0.0477 0.127334,0.09674 0.198438,0.132292 0.06236,0.03118 0.140425,0.02747 0.198437,0.06615 0.07783,0.05189 0.132292,0.132291 0.198438,0.198437 0.02204,0.02204 0.04885,0.0402 0.06615,0.06615 0.02735,0.04102 0.02513,0.104942 0.06614,0.132292 0.03669,0.02445 0.09046,-0.01394 0.132292,0 0.02958,0.0099 0.03826,0.0522 0.06615,0.06615 0.01971,0.0099 0.05055,-0.01558 0.06615,0 0.01558,0.01558 -0.01558,0.05055 0,0.06614 0.03486,0.03486 0.09442,0.03458 0.132291,0.06615 0.43361,0.361342 0.123495,0.134962 0.396875,0.463021 0.541811,0.650174 -0.123436,-0.189584 0.396875,0.330729 0.03486,0.03486 0.03129,0.09743 0.06615,0.132292 0.03486,0.03486 0.09743,0.03128 0.132292,0.06615 0.03486,0.03486 0.03128,0.09743 0.06615,0.132291 0.01558,0.01558 0.05055,-0.01558 0.06615,0 0.01558,0.01558 -0.01558,0.05055 0,0.06615 0.136858,0.136856 -0.0053,-0.20914 0.132291,0.06615 0.0099,0.01971 0,0.0441 0,0.06615 0.02204,0.04409 0.03535,0.09379 0.06615,0.132292 0.176517,0.220644 0.260014,0.189296 0.396875,0.46302 0.06236,0.124725 0.06993,0.272148 0.132292,0.396875 0.02789,0.05578 0.10913,0.07439 0.132291,0.132292 0.02455,0.06141 -0.01296,0.133575 0,0.198438 0.05324,0.266178 0.04827,0.03039 0.132292,0.198437 0.0099,0.01971 0.02204,0.06615 0,0.06615 -0.02204,0 -0.0099,-0.08587 0,-0.06615 0.03118,0.06236 0.04924,0.130794 0.06615,0.198438 0.01069,0.04278 -0.0087,0.08905 0,0.132291 0.01783,0.08914 0.0441,0.176387 0.06615,0.264584 z"
         style="fill:#3f8a17;fill-opacity:1;stroke:none;stroke-width:0.26458332px;stroke-linecap:butt;stroke-linejoin:miter;stroke-opacity:1" />
      <path
         inkscape:connector-curvature="0"
         id="path858"
         d="m 27.979708,83.282823 c -0.352785,0.198435 -0.716129,0.379164 -1.058354,0.595302 -0.56202,0.354947 0.256529,0.06015 -0.529167,0.396875 -0.183387,0.07859 -0.09084,-0.107593 -0.264583,0.06615 -0.01559,0.01558 0.01559,0.05055 0,0.06615 -0.0913,0.0913 -0.261113,0.210278 -0.396875,0.264583 -0.06474,0.0259 -0.136075,0.03496 -0.198438,0.06615 -0.18418,0.09209 -0.250587,0.184438 -0.396875,0.330729 -0.02205,0.02204 -0.05858,0.03589 -0.06614,0.06615 -0.01604,0.06417 0.01604,0.134266 0,0.198438 -0.04588,0.18352 -0.06032,-0.0058 -0.132292,0.06615 -0.0021,0.0021 0,0.182394 0,0.198438 0,0.308679 0,0.61736 0,0.926042 0,0.595312 0,1.190625 0,1.785937 0,0.132292 0,0.264583 0,0.396875 0,0.154339 0.01282,0.309213 0,0.463021 -0.0093,0.112038 -0.05373,0.21899 -0.06615,0.330729 -0.0097,0.08765 0,0.176387 0,0.264583 0,0.0441 0,0.08819 0,0.132292 0,0.02204 0.01559,0.05055 0,0.06615 -0.03486,0.03486 -0.09743,0.03128 -0.132292,0.06615 -0.01559,0.01558 0,0.0441 0,0.06615 0,0.02204 0,0.04409 0,0.06615 0,0.132292 0,0.264584 0,0.396875 0,0.264584 0,0.529167 0,0.79375 0,0.01572 -0.0074,0.249756 0,0.264584 0.01395,0.02789 0.05655,0.09581 0.06615,0.06615 0.247051,-0.763613 0.457207,-1.538948 0.661459,-2.315104 0.01683,-0.06397 0,-0.132291 0,-0.198437 0,-0.06615 0,-0.132292 0,-0.198438 0,-0.220488 0,-0.440973 0,-0.661458 0,-0.110244 -0.01559,-0.221596 0,-0.330729 0.01286,-0.09 0.0441,-0.17639 0.06615,-0.264583 0.02205,-0.0882 0.03034,-0.181026 0.06615,-0.264584 0.03132,-0.07307 0.09674,-0.127333 0.132292,-0.198437 0.03118,-0.06236 0.04025,-0.133702 0.06615,-0.198438 0.01831,-0.04578 0.0441,-0.0882 0.06615,-0.132291 0.0441,-0.0882 0.08337,-0.178973 0.132291,-0.264584 0.325071,-0.568875 -0.04141,0.04141 0.264584,-0.264583 0.01559,-0.01558 -0.007,-0.04523 0,-0.06615 0.01559,-0.04677 0.03128,-0.09743 0.06614,-0.132292 0.01559,-0.01558 0.05055,0.01558 0.06615,0 0.03486,-0.03486 0.0388,-0.09127 0.06615,-0.132291 0.126185,-0.189278 0.01238,0.101309 0.132292,-0.198438 0.0259,-0.06474 0.02747,-0.140425 0.06615,-0.198437 0.01222,-0.01834 0.0478,0.01222 0.06615,0 0.05189,-0.03459 0.0804,-0.0977 0.132292,-0.132292 0.01834,-0.01222 0.04851,0.01323 0.06615,0 0.07484,-0.05613 0.112456,-0.161589 0.198437,-0.198437 0.08106,-0.03474 0.178102,0.0173 0.264584,0 0.03058,-0.0061 0.03826,-0.0522 0.06615,-0.06615 0.01971,-0.0099 0.0441,0 0.06615,0 0.06615,-0.06615 0.123603,-0.142312 0.198438,-0.198438 0.01765,-0.01323 0.0441,0 0.06615,0 0.06614,0 0.132291,0 0.198437,0 0.02204,0 0.05055,0.01558 0.06615,0 0.01558,-0.01558 0,-0.0441 0,-0.06615 0,-0.02204 0,-0.0441 0,-0.06615 0,-0.220488 0,-0.440974 0,-0.661459 0,-0.0882 0,-0.17639 0,-0.264583 0,-0.02204 0,-0.0441 0,-0.06615 0,-0.02204 -0.02204,-0.06615 0,-0.06615 0.02204,0 -0.01323,0.08378 0,0.06615 0.07714,-0.102854 0.211227,-0.202803 0.198437,-0.330729 -0.01405,-0.140473 -0.176373,-0.22048 -0.264562,-0.330719"
         style="fill:#3f8a17;fill-opacity:1;stroke:none;stroke-width:0.26458332px;stroke-linecap:butt;stroke-linejoin:miter;stroke-opacity:1" />
      <path
         inkscape:connector-curvature="0"
         id="path870"
         d="m 28.437477,82.526226 c 0.11693,-0.02339 0.233005,-0.05156 0.350793,-0.07016 0.0308,-0.0049 0.06236,0 0.09354,0 0.08575,0 0.171498,0 0.257247,0 0.07795,0 0.155908,0 0.233859,0 0.03047,0 0.09091,-0.0052 0.116933,0 0.02418,0.0048 0.0457,0.02032 0.07016,0.02339 0.02638,0.0033 0.242737,-0.004 0.257246,0 0.301366,0.08219 -0.0131,0.07016 0.18709,0.07016 0.03118,0 0.06236,0 0.09354,0 0.01558,0 0.04529,-0.01553 0.04677,0 0.01553,0.162965 0.0397,0.332293 0,0.491107 -0.01871,0.07487 -0.118067,0.101473 -0.163703,0.163703 -0.0361,0.04923 -0.199199,0.423664 -0.210473,0.444336 -0.04867,0.08923 -0.111995,0.169743 -0.163703,0.257246 -0.168325,0.284858 -0.107529,0.199266 -0.233863,0.467723 -0.05689,0.120893 -0.100155,0.163213 -0.116929,0.280632 -0.0033,0.02286 -0.0024,0.197975 0,0.210474 0.01016,0.05584 0.03927,0.10745 0.04677,0.163703 0.0082,0.06182 -0.0097,0.125489 0,0.187089 0.01386,0.08779 0.04637,0.171609 0.07016,0.257247 0.01519,0.05468 0.03974,0.107389 0.04677,0.163703 0.0087,0.06962 -0.0047,0.140472 0,0.210473 0.01572,0.235749 0.02066,0.05112 0.04677,0.233863 0.0033,0.02315 0,0.04677 0,0.07016 0,0.0078 -0.0043,0.01691 0,0.02339 0.01222,0.01834 0.03691,0.02705 0.04677,0.04677 0.007,0.01394 0,0.03118 0,0.04677 0,0.06237 0,0.124728 0,0.18709 0,0.187089 0,0.374176 0,0.561266 0,0.140316 0,0.280633 0,0.420949 0,0.05457 0,0.109135 0,0.163703 0,0.03118 0.0086,0.06356 0,0.09354 -0.0077,0.02703 -0.03905,0.04314 -0.04677,0.07016 -0.0086,0.02998 0,0.06236 0,0.09354 0,0.02339 0,0.04677 0,0.07016 0,0.08575 0,0.171498 0,0.257247 0,0.03118 0.0044,0.06267 0,0.09354 -0.0035,0.02439 -0.01934,0.04584 -0.02339,0.07016 -0.0051,0.03075 0,0.06236 0,0.09354 0,0.06236 0,0.124725 0,0.18709 0,0.07795 0,0.155905 0,0.233859 0,0.02339 0,0.04677 0,0.07016 0,0.01558 -0.0021,0.03134 0,0.04677 0.0056,0.03935 0.01685,0.07772 0.02339,0.11693 0.0051,0.0307 -0.0085,0.09151 0,0.116933 0.04575,0.137237 0.05251,0.04594 0.07016,0.187087 0.0039,0.03094 0,0.06236 0,0.09355 0,0.07795 0,0.155906 0,0.23386 0,0.0062 0.0039,0.06823 0,0.07016 -0.02201,0.01101 -0.08,-0.0053 -0.09354,-0.02339 -0.02958,-0.03945 -0.02141,-0.09804 -0.04677,-0.140317 -0.01135,-0.01892 -0.033,-0.02956 -0.04677,-0.04677 -0.01757,-0.02193 -0.02848,-0.04882 -0.04677,-0.07016 -0.05808,-0.06776 -0.200526,-0.173902 -0.23386,-0.257246 -0.01762,-0.04402 -0.0109,-0.09457 -0.02339,-0.140316 -0.01103,-0.0405 -0.03767,-0.07595 -0.04677,-0.11693 -0.06247,-0.28111 0.108633,0.154651 -0.04677,-0.23386 -0.01294,-0.03237 -0.03382,-0.06118 -0.04677,-0.09355 -0.0029,-0.0072 0.0019,-0.01582 0,-0.02339 -0.006,-0.02392 -0.01934,-0.04584 -0.02339,-0.07016 -0.0038,-0.02307 0,-0.04677 0,-0.07016 0,-0.02339 0,-0.04677 0,-0.07016 0,-0.04677 0.0105,-0.09474 0,-0.140316 -0.111792,-0.484431 -0.01728,0.07084 -0.140317,-0.257246 -0.01095,-0.0292 0,-0.06236 0,-0.09355 0,-0.02339 0,-0.04677 0,-0.07016 0,-0.140317 0,-0.280633 0,-0.42095 0,-0.05457 0.0072,-0.109614 0,-0.163703 -0.0085,-0.06372 -0.0362,-0.123682 -0.04677,-0.187089 -0.0051,-0.03076 0,-0.06236 0,-0.09354 0,-0.05457 0.0077,-0.109683 0,-0.163703 -0.008,-0.05618 -0.03662,-0.107865 -0.04677,-0.163703 -0.0056,-0.03068 0,-0.06236 0,-0.09354 0,-0.03898 0,-0.07795 0,-0.11693 0,-0.01558 0.0038,-0.03165 0,-0.04677 -0.0042,-0.01691 -0.02053,-0.02958 -0.02339,-0.04677 -0.0051,-0.03076 0,-0.06236 0,-0.09355 0,-0.03118 0,-0.06236 0,-0.09354 0,-0.226065 0,-0.452131 0,-0.678196 0,-0.05457 0,-0.109135 0,-0.163703 0,-0.04677 -0.0066,-0.09401 0,-0.140317 0.0091,-0.06364 0.037,-0.123555 0.04677,-0.187089 0.0059,-0.03852 0,-0.07795 0,-0.11693 0,-0.04677 0,-0.09354 0,-0.140317 0,-0.273536 -0.01135,-0.02548 0.02339,-0.233859 0.0026,-0.01537 0,-0.03118 0,-0.04677 0,-0.03898 0,-0.07796 0,-0.11693 0,-0.03898 0,-0.07796 0,-0.11693 0,-0.02339 0.0029,-0.04695 0,-0.07016 -0.0049,-0.03944 -0.01844,-0.07749 -0.02339,-0.11693 -0.0029,-0.0232 0.0057,-0.04747 0,-0.07016 -0.01019,-0.04073 -0.03854,-0.07577 -0.04677,-0.11693 -0.0076,-0.03822 0.0043,-0.07819 0,-0.11693 -0.0035,-0.03194 -0.01709,-0.06203 -0.02339,-0.09354 -0.0042,-0.02103 0,-0.04864 0,-0.07016 0,-0.0078 -0.0078,-0.02339 0,-0.02339 0.0078,0 0.0035,0.03036 0,0.02339 -0.01103,-0.02204 -0.01236,-0.04811 -0.02339,-0.07016 -0.0049,-0.0099 -0.0199,-0.01294 -0.02339,-0.02339 -0.01257,-0.03771 -0.019,-0.07742 -0.02339,-0.11693 -0.0034,-0.03099 0.0028,-0.06249 0,-0.09355 -0.02779,-0.305753 -0.02339,-0.04569 -0.02339,-0.257247 0,-0.03118 0,-0.06236 0,-0.09354 0,-0.02339 0.0074,-0.04797 0,-0.07016 -0.0089,-0.02666 -0.0387,-0.04324 -0.04677,-0.07016 -0.0289,-0.09633 -0.02339,-0.183507 -0.02339,-0.280633 z"
         style="fill:#3f8a17;fill-opacity:1;stroke:none;stroke-width:0.26458332px;stroke-linecap:butt;stroke-linejoin:miter;stroke-opacity:1" />
    </g>
  </g>
</svg>
